0,105,38.516036587993796,20.829304009134233,7,0.0,37.40716957481294,39.669852988451375,0.43809519637188604,True,6
1,97,38.68817914450764,21.40012739376964,7,0.09820192492362,38.48465603264325,39.616102742150964,0.443298923371245,True,6
2,83,39.419516428820174,21.001289379398244,7,0.06623940960221336,38.876809763989954,39.72554825914667,0.4457830788213158,True,6
3,77,39.284652583704016,21.919010435665783,7,0.06623940960221336,39.22603796456282,40.162303776279764,0.4675324068139731,True,6
4,76,38.519457499553575,22.163628539496344,8,0.06623940960221336,38.991169257931624,40.32931898699329,0.47368414819945415,True,6
5,76,38.16300128955389,22.10435639675448,9,0.06623940960221336,39.0232790264569,40.13797730848489,0.47368414819945415,True,6
6,70,38.72603427775737,21.898982970633153,8,0.08371243044293897,38.98428901059945,41.01893668737432,0.49999992857143877,True,6
7,69,38.33778146101781,21.853285251210075,8,0.08371243044293897,39.200726976907355,41.23021318100534,0.5072463032976372,True,6
8,67,38.842515296112275,21.47198937840563,7,0.22545171048982784,39.42170253650432,41.378065800994605,0.4925372399198149,True,6
9,68,39.201749051180684,21.81104851433488,7,0.22545171048982784,39.54343926978492,41.74306925771618,0.49999992647059904,True,6
10,66,39.27838870562115,22.159304271068166,7,0.22545171048982784,39.506070815641905,42.299101128538375,0.5303029499540984,True,6
11,68,39.1586321847404,21.90744998614556,7,0.22545171048982784,39.759175417252536,42.54630150592406,0.5441175670415342,True,6
12,62,38.96538542945788,23.436025126486797,7,0.24207523862795904,39.49158201235999,43.565191577431854,0.548387008324676,True,6
13,60,39.24011731693846,23.675131341867274,7,0.3317189461714548,39.101522377346406,43.460429271383,0.5499999083333486,True,6
14,59,39.3833128805158,23.95177993457166,6,0.3909066687422652,39.27773828020293,43.44163915857731,0.5423727894283408,True,6
15,61,39.28579442414245,24.195665391099794,7,0.3909066687422652,39.31198983501275,43.86038123828963,0.5409835178715544,True,6
16,59,39.223316409189636,24.23174966416049,7,0.3909066687422652,38.89237194200512,43.58564845484015,0.5423727894283408,True,6
17,56,39.18780331092332,25.51277934817043,8,0.3909066687422652,38.69311310711817,43.84568604389888,0.5178570503826695,True,6
18,56,39.0370381648865,25.940843180366432,8,0.3909066687422652,38.970595544236296,43.77714918607801,0.4999999107143016,True,6
19,55,39.40132991109654,26.01184858794,8,0.3909066687422652,38.87210177339927,44.232590375387005,0.527272631404976,True,6
20,56,38.98507515904863,27.583700323223574,8,0.3909066687422652,38.70464999859051,44.483131728181014,0.4999999107143016,True,6
21,53,39.30524477075773,28.405690999916978,7,0.4904057116203008,38.82571821024547,44.79724020013478,0.49056594517623675,True,6
22,48,39.004118905084326,29.185381813979852,7,0.4904057116203008,38.58907437497616,45.346948019867135,0.5208332248264115,True,6
23,47,38.98707909650804,28.077362015437135,7,0.3603431407257998,39.147990067418725,45.32957372646443,0.5319147804436637,True,6
24,41,40.03872668553042,28.175668927596504,6,0.5000864807736202,39.824343158467144,45.293114487775014,0.536585234979211,True,6
25,40,40.23835852995018,28.21125810012459,6,0.49950629312681594,39.43565193285206,45.293114487775014,0.5249998687500328,True,6
26,40,40.23835852995018,29.21125810012459,6,0.49950629312681594,39.43565193285206,45.293114487775014,0.5249998687500328,True,6
27,39,40.77475287370161,28.10203715090994,5,0.3870018004051106,40.09665939762485,45.43892630692821,0.5384614003945126,True,6
28,36,41.0189816091236,24.271765785209123,4,0.40470746892573584,40.23941753896367,45.35406506851361,0.5277776311728802,True,6
29,37,41.24587600404152,23.827819788958006,4,0.32903860469921165,40.71220336570719,45.51440070703544,0.4864863550036878,True,6
30,34,41.24587600404152,24.827819788958006,4,0.32903860469921165,40.71220336570719,44.574690404066445,0.5294116089965856,True,6
31,33,42.42345721215273,24.327819788958006,4,0.32903860469921165,40.9009282507495,44.44295841599,0.5454543801653393,True,6
32,39,41.73714790884348,21.709559819106865,4,0.32903860469921165,41.5153272655357,44.63787109215544,0.5384614003945126,True,6
33,40,41.84047630899129,21.441159220062936,3,0.3035729688051029,42.00462999593347,45.06976098398392,0.49999987500003124,True,6
34,40,41.84047630899129,22.441159220062936,3,0.3035729688051029,42.00462999593347,44.52005566886155,0.49999987500003124,True,6
35,38,41.84047630899129,23.441159220062936,3,0.3035729688051029,42.00462999593347,44.43624281605625,0.5263156509695655,True,6
36,38,42.13917486103319,24.62227286322414,4,0.3035729688051029,42.088661069986436,44.400413874095804,0.49999986842108723,True,6
37,37,42.567408268371594,25.879065800069927,4,0.3035729688051029,42.43703506298554,44.400413874095804,0.4864863550036878,True,6
38,35,42.875652250676914,22.416165871962296,2,0.31970974349840886,43.139305539368394,44.36114009896792,0.4857141469388151,True,6
39,34,41.045042552154015,20.729852911053435,3,0.31970974349840886,42.79256539912158,44.36114009896792,0.4705880968858538,True,6
40,32,41.045042552154015,21.729852911053435,3,0.31970974349840886,42.79256539912158,43.828141572179696,0.4999998437500488,True,6
41,33,41.045042552154015,22.729852911053435,3,0.31970974349840886,42.79256539912158,43.663267816698436,0.484848337924746,True,6
42,33,41.045042552154015,23.729852911053435,3,0.31970974349840886,42.79256539912158,43.7038842285895,0.484848337924746,True,6
43,34,39.996328650986726,23.275155680991467,4,0.31970974349840886,42.58822445425316,43.5606327415569,0.4999998529412197,True,6
44,36,40.589718607220576,21.4739467286789,3,0.2577131988775701,42.728195831299026,43.559118779919835,0.4722220910494191,True,6
45,38,41.00214696012207,21.225394132641185,3,0.2577131988775701,42.816571185294,43.83436851486234,0.47368408587260896,True,6
46,38,40.50234866809862,23.415123199267136,3,0.2577131988775701,42.85006829554566,43.56742925075465,0.4473683033241307,True,6
47,37,38.4693522200031,20.88235294117647,2,0.20472450584335022,42.35418454586329,43.12595376987208,0.4594593352812607,True,6
48,38,38.4693522200031,21.88235294117647,2,0.20472450584335022,42.35418454586329,42.80926380710781,0.4473683033241307,True,6
49,35,38.4693522200031,22.88235294117647,3,0.20472450584335022,42.35418454586329,43.27617053349842,0.4857141469388151,True,6
50,35,39.448375306020914,21.36842105263158,3,0.20472450584335022,42.61802182309461,43.082344686579646,0.5428569877551463,True,6
51,34,39.18544012962367,21.25,4,0.20472450584335022,42.543357038471655,43.462388241829125,0.5882351211073172,True,6
52,34,39.18544012962367,22.25,4,0.20472450584335022,42.543357038471655,43.86528096310324,0.5882351211073172,True,6
53,37,39.668147571176455,21.136363636363637,4,0.20472450584335022,43.02830492673459,43.76657671651355,0.5945944338933962,True,6
54,36,40.37511404903008,20.80952380952381,3,0.28855133862042726,43.58015941627738,43.47951112610162,0.5833331712963412,True,6
55,36,40.35502050175681,20.818181818181817,3,0.28855133862042726,43.56916045241224,43.49212699093538,0.6111109413580718,True,6
56,34,39.99033438472393,22.333333333333332,3,0.28855133862042726,43.5334560833267,43.938210491709626,0.6176468771626832,True,6
57,34,39.99033438472393,23.333333333333332,3,0.28855133862042726,43.5334560833267,43.83711606933149,0.6176468771626832,True,6
58,33,39.562878114507996,25.3,3,0.28855133862042726,43.42592614758736,43.83711606933149,0.6060604224059325,True,6
59,34,39.778850274171404,25.047619047619047,3,0.28855133862042726,43.69441125859606,43.83711606933149,0.6176468771626832,True,6
60,30,39.15039648444309,23.842105263157894,3,0.2732800037108232,44.41213859976328,44.759222573733496,0.6333331222222927,True,6
61,28,38.40932342388974,21.27777777777778,2,0.2671716436637563,44.65773422715289,44.85959553922608,0.6428569132653881,True,6
62,27,38.34342406524248,21.105263157894736,2,0.2671716436637563,44.76643505601908,45.07302086801276,0.7037034430727989,True,6
63,27,38.34342406524248,22.105263157894736,2,0.2671716436637563,44.76643505601908,45.07302086801276,0.7037034430727989,True,6
64,25,38.02370909845376,22.61111111111111,4,0.2671716436637563,44.61362521769351,46.30124319889709,0.7199997120001153,True,6
65,26,38.6020597714621,22.36842105263158,4,0.2671716436637563,44.66975731909651,44.86238640092288,0.7307689497042501,True,6
66,25,39.4567905236372,23.38888888888889,4,0.2671716436637563,44.96703442924863,44.86238640092288,0.7199997120001153,True,6
67,25,38.89469750234455,25.705882352941178,4,0.2671716436637563,44.925087328360284,44.763978490100854,0.6799997280001088,True,6
68,23,39.597637278959255,24.8125,3,0.3509086432250518,44.857405492065816,44.86238640092288,0.6956518714557081,True,6
69,23,39.597637278959255,25.8125,4,0.3509086432250518,44.857405492065816,45.706769638070575,0.6956518714557081,True,6
70,25,40.09547505398435,23.833333333333332,5,0.3509086432250518,44.916280156783685,45.706769638070575,0.7199997120001153,True,6
71,25,40.09547505398435,24.833333333333332,5,0.3509086432250518,44.916280156783685,45.706769638070575,0.7199997120001153,True,6
72,25,40.09547505398435,25.833333333333332,5,0.3509086432250518,44.916280156783685,45.706769638070575,0.7199997120001153,True,6
73,24,39.57095171094741,28.235294117647058,5,0.3509086432250518,44.871347510456225,45.706769638070575,0.7083330381945674,True,6
74,23,40.1041035096802,28.4375,4,0.40190484189128634,44.89243753911252,45.36139332258068,0.6956518714557081,True,6
75,23,40.1041035096802,29.4375,4,0.40190484189128634,44.89243753911252,45.36139332258068,0.6956518714557081,True,6
76,24,40.435481087648675,28.647058823529413,4,0.40190484189128634,45.11580294577166,45.36139332258068,0.7083330381945674,True,6
77,24,40.435481087648675,29.647058823529413,4,0.40190484189128634,45.11580294577166,45.36139332258068,0.7083330381945674,True,6
78,23,40.435481087648675,30.647058823529413,4,0.40190484189128634,45.11580294577166,45.03445092172865,0.7391301134216899,True,6
79,23,40.435481087648675,31.647058823529413,5,0.40190484189128634,45.11580294577166,45.03445092172865,0.7391301134216899,True,6
80,23,40.116223685896934,30.8125,5,0.33872616635306974,45.23793016647964,44.67430942106544,0.6956518714557081,True,6
81,21,39.850752367127434,32.46666666666667,5,0.33872616635306974,44.98285127899363,45.77357208989651,0.7142853741498219,True,6
82,20,40.173768265480476,31.714285714285715,4,0.38275330771335386,44.95822063322884,45.77357208989651,0.699999650000175,True,6
83,20,40.173768265480476,32.714285714285715,5,0.38275330771335386,44.95822063322884,45.77357208989651,0.699999650000175,True,6
84,20,40.173768265480476,33.714285714285715,5,0.38275330771335386,44.95822063322884,45.77357208989651,0.699999650000175,True,6
85,19,40.173768265480476,34.714285714285715,5,0.38275330771335386,44.95822063322884,45.792259479005715,0.7368417174517277,True,6
86,17,41.62650498107367,35.46153846153846,5,0.45851492988176357,45.25310482573602,46.21639357594756,0.7647054325262161,True,6
87,15,42.0885927910264,35.0,4,0.40934775348276525,44.96950954991178,46.21639357594756,0.7333328444447704,True,6
88,15,42.0885927910264,36.0,4,0.40934775348276525,44.96950954991178,46.21639357594756,0.7333328444447704,True,6
89,14,42.0885927910264,37.0,4,0.40934775348276525,44.96950954991178,45.267153608340095,0.7857137244901968,True,6
90,14,42.0885927910264,38.0,5,0.40934775348276525,44.96950954991178,45.267153608340095,0.7857137244901968,True,6
91,14,42.0885927910264,39.0,5,0.40934775348276525,44.96950954991178,45.267153608340095,0.7857137244901968,True,6
92,14,42.0885927910264,40.0,5,0.40934775348276525,44.96950954991178,45.267153608340095,0.7857137244901968,True,6
93,14,42.0885927910264,41.0,5,0.40934775348276525,44.96950954991178,45.267153608340095,0.7857137244901968,True,6
94,12,40.68289071102421,42.0,4,0.3957861232797328,44.26248210214363,45.267153608340095,0.7499993750005208,True,6
95,11,40.69940846178511,41.25,4,0.4023163565300398,44.336512995120344,45.267153608340095,0.7272720661163036,True,6
96,11,40.69940846178511,42.25,4,0.4023163565300398,44.336512995120344,45.267153608340095,0.7272720661163036,True,6
97,11,40.69940846178511,43.25,4,0.4023163565300398,44.336512995120344,45.267153608340095,0.7272720661163036,True,6
98,9,39.55784168629345,41.833333333333336,4,0.36344470790342415,43.43754728986439,45.267153608340095,0.666665925926749,True,6
99,9,39.55784168629345,42.833333333333336,5,0.36344470790342415,43.43754728986439,45.267153608340095,0.666665925926749,True,6
100,9,39.55784168629345,43.833333333333336,5,0.36344470790342415,43.43754728986439,45.267153608340095,0.666665925926749,True,6
101,9,39.55784168629345,44.833333333333336,5,0.36344470790342415,43.43754728986439,45.267153608340095,0.666665925926749,True,6
102,9,39.55784168629345,45.833333333333336,5,0.36344470790342415,43.43754728986439,45.267153608340095,0.666665925926749,True,6
103,9,39.55784168629345,46.833333333333336,5,0.36344470790342415,43.43754728986439,45.267153608340095,0.666665925926749,True,6
104,9,39.55784168629345,47.833333333333336,5,0.36344470790342415,43.43754728986439,45.267153608340095,0.666665925926749,True,6
105,8,38.06927336649173,47.6,4,0.27624238079843305,43.317612235635636,45.267153608340095,0.6249992187509766,True,6
106,7,38.06927336649173,48.6,4,0.27624238079843305,43.317612235635636,43.80394011089443,0.7142846938790088,True,6
107,7,38.06927336649173,49.6,4,0.27624238079843305,43.317612235635636,43.80394011089443,0.7142846938790088,True,6
108,7,38.06927336649173,50.6,4,0.27624238079843305,43.317612235635636,43.80394011089443,0.7142846938790088,True,6
109,6,39.03917376359562,50.0,3,0.2992650608090095,43.86583376188567,43.80394011089443,0.6666655555574075,True,6
110,5,39.03917376359562,51.0,4,0.2992650608090095,43.86583376188567,42.51346041708614,0.7999984000032001,True,6
111,5,39.03917376359562,52.0,4,0.2992650608090095,43.86583376188567,42.51346041708614,0.7999984000032001,True,6
112,5,39.03917376359562,53.0,4,0.2992650608090095,43.86583376188567,42.51346041708614,0.7999984000032001,True,6
113,5,39.03917376359562,54.0,4,0.2992650608090095,43.86583376188567,42.51346041708614,0.7999984000032001,True,6
114,5,39.03917376359562,55.0,4,0.2992650608090095,43.86583376188567,42.51346041708614,0.7999984000032001,True,6
115,4,35.8724117551133,53.0,3,0.30593402364482647,43.2597600831431,42.51346041708614,0.7499981250046875,True,6
116,4,35.8724117551133,54.0,3,0.30593402364482647,43.2597600831431,42.51346041708614,0.7499981250046875,True,6
117,4,35.8724117551133,55.0,3,0.30593402364482647,43.2597600831431,42.51346041708614,0.7499981250046875,True,6
118,3,33.84208962816089,52.5,2,0.32361902999516057,43.22054901909253,42.51346041708614,0.6666644444518518,True,6
119,2,39.14398262275788,49.0,1,0.39131587249277733,45.09441980470273,42.51346041708614,0.49999750001249993,True,6
120,1,39.14398262275788,50.0,1,0.39131587249277733,45.09441980470273,,0.9999900000999989,True,6
121,1,39.14398262275788,51.0,1,0.39131587249277733,45.09441980470273,,0.9999900000999989,True,6
122,1,39.14398262275788,52.0,1,0.39131587249277733,45.09441980470273,,0.9999900000999989,True,6
123,1,39.14398262275788,53.0,1,0.39131587249277733,45.09441980470273,,0.9999900000999989,True,6
124,0,,,0,0.4238700039418566,,,0.0,True,6
125,0,,,0,0.4238700039418566,,,0.0,True,6
126,0,,,0,0.4238700039418566,,,0.0,True,6
127,0,,,0,0.4238700039418566,,,0.0,True,6
128,0,,,0,0.4238700039418566,,,0.0,True,6
129,0,,,0,0.4238700039418566,,,0.0,True,6
130,0,,,0,0.4238700039418566,,,0.0,True,6
131,0,,,0,0.4238700039418566,,,0.0,True,6
132,0,,,0,0.4238700039418566,,,0.0,True,6
133,0,,,0,0.4238700039418566,,,0.0,True,6
134,0,,,0,0.4238700039418566,,,0.0,True,6
135,0,,,0,0.4238700039418566,,,0.0,True,6
136,0,,,0,0.4238700039418566,,,0.0,True,6
137,0,,,0,0.4238700039418566,,,0.0,True,6
138,0,,,0,0.4238700039418566,,,0.0,True,6
139,0,,,0,0.4238700039418566,,,0.0,True,6
140,0,,,0,0.4238700039418566,,,0.0,True,6
141,0,,,0,0.4238700039418566,,,0.0,True,6
142,0,,,0,0.4238700039418566,,,0.0,True,6
143,0,,,0,0.4238700039418566,,,0.0,True,6
144,0,,,0,0.4238700039418566,,,0.0,True,6
145,0,,,0,0.4238700039418566,,,0.0,True,6
146,0,,,0,0.4238700039418566,,,0.0,True,6
147,0,,,0,0.4238700039418566,,,0.0,True,6
148,0,,,0,0.4238700039418566,,,0.0,True,6
149,0,,,0,0.4238700039418566,,,0.0,True,6
150,0,,,0,0.4238700039418566,,,0.0,True,6
151,0,,,0,0.4238700039418566,,,0.0,True,6
152,0,,,0,0.4238700039418566,,,0.0,True,6
153,0,,,0,0.4238700039418566,,,0.0,True,6
154,0,,,0,0.4238700039418566,,,0.0,True,6
155,0,,,0,0.4238700039418566,,,0.0,True,6
156,0,,,0,0.4238700039418566,,,0.0,True,6
157,0,,,0,0.4238700039418566,,,0.0,True,6
158,0,,,0,0.4238700039418566,,,0.0,True,6
159,0,,,0,0.4238700039418566,,,0.0,True,6
160,0,,,0,0.4238700039418566,,,0.0,True,6
161,0,,,0,0.4238700039418566,,,0.0,True,6
162,0,,,0,0.4238700039418566,,,0.0,True,6
163,0,,,0,0.4238700039418566,,,0.0,True,6
164,0,,,0,0.4238700039418566,,,0.0,True,6
165,0,,,0,0.4238700039418566,,,0.0,True,6
166,0,,,0,0.4238700039418566,,,0.0,True,6
167,0,,,0,0.4238700039418566,,,0.0,True,6
168,0,,,0,0.4238700039418566,,,0.0,True,6
169,0,,,0,0.4238700039418566,,,0.0,True,6
170,0,,,0,0.4238700039418566,,,0.0,True,6
171,0,,,0,0.4238700039418566,,,0.0,True,6
172,0,,,0,0.4238700039418566,,,0.0,True,6
173,0,,,0,0.4238700039418566,,,0.0,True,6
174,0,,,0,0.4238700039418566,,,0.0,True,6
175,0,,,0,0.4238700039418566,,,0.0,True,6
176,0,,,0,0.4238700039418566,,,0.0,True,6
177,0,,,0,0.4238700039418566,,,0.0,True,6
178,0,,,0,0.4238700039418566,,,0.0,True,6
179,0,,,0,0.4238700039418566,,,0.0,True,6
180,0,,,0,0.4238700039418566,,,0.0,True,6
181,0,,,0,0.4238700039418566,,,0.0,True,6
182,0,,,0,0.4238700039418566,,,0.0,True,6
183,0,,,0,0.4238700039418566,,,0.0,True,6
184,0,,,0,0.4238700039418566,,,0.0,True,6
185,0,,,0,0.4238700039418566,,,0.0,True,6
186,0,,,0,0.4238700039418566,,,0.0,True,6
187,0,,,0,0.4238700039418566,,,0.0,True,6
188,0,,,0,0.4238700039418566,,,0.0,True,6
189,0,,,0,0.4238700039418566,,,0.0,True,6
190,0,,,0,0.4238700039418566,,,0.0,True,6
191,0,,,0,0.4238700039418566,,,0.0,True,6
192,0,,,0,0.4238700039418566,,,0.0,True,6
193,0,,,0,0.4238700039418566,,,0.0,True,6
194,0,,,0,0.4238700039418566,,,0.0,True,6
195,0,,,0,0.4238700039418566,,,0.0,True,6
196,0,,,0,0.4238700039418566,,,0.0,True,6
197,0,,,0,0.4238700039418566,,,0.0,True,6
198,0,,,0,0.4238700039418566,,,0.0,True,6
199,0,,,0,0.4238700039418566,,,0.0,True,6
200,0,,,0,0.4238700039418566,,,0.0,True,6
201,0,,,0,0.4238700039418566,,,0.0,True,6
202,0,,,0,0.4238700039418566,,,0.0,True,6
203,0,,,0,0.4238700039418566,,,0.0,True,6
204,0,,,0,0.4238700039418566,,,0.0,True,6
205,0,,,0,0.4238700039418566,,,0.0,True,6
206,0,,,0,0.4238700039418566,,,0.0,True,6
207,0,,,0,0.4238700039418566,,,0.0,True,6
208,0,,,0,0.4238700039418566,,,0.0,True,6
209,0,,,0,0.4238700039418566,,,0.0,True,6
210,0,,,0,0.4238700039418566,,,0.0,True,6
211,0,,,0,0.4238700039418566,,,0.0,True,6
212,0,,,0,0.4238700039418566,,,0.0,True,6
213,0,,,0,0.4238700039418566,,,0.0,True,6
214,0,,,0,0.4238700039418566,,,0.0,True,6
215,0,,,0,0.4238700039418566,,,0.0,True,6
216,0,,,0,0.4238700039418566,,,0.0,True,6
217,0,,,0,0.4238700039418566,,,0.0,True,6
218,0,,,0,0.4238700039418566,,,0.0,True,6
219,0,,,0,0.4238700039418566,,,0.0,True,6
220,0,,,0,0.4238700039418566,,,0.0,True,6
221,0,,,0,0.4238700039418566,,,0.0,True,6
222,0,,,0,0.4238700039418566,,,0.0,True,6
223,0,,,0,0.4238700039418566,,,0.0,True,6
224,0,,,0,0.4238700039418566,,,0.0,True,6
225,0,,,0,0.4238700039418566,,,0.0,True,6
226,0,,,0,0.4238700039418566,,,0.0,True,6
227,0,,,0,0.4238700039418566,,,0.0,True,6
228,0,,,0,0.4238700039418566,,,0.0,True,6
229,0,,,0,0.4238700039418566,,,0.0,True,6
230,0,,,0,0.4238700039418566,,,0.0,True,6
231,0,,,0,0.4238700039418566,,,0.0,True,6
232,0,,,0,0.4238700039418566,,,0.0,True,6
233,0,,,0,0.4238700039418566,,,0.0,True,6
234,0,,,0,0.4238700039418566,,,0.0,True,6
235,0,,,0,0.4238700039418566,,,0.0,True,6
236,0,,,0,0.4238700039418566,,,0.0,True,6
237,0,,,0,0.4238700039418566,,,0.0,True,6
238,0,,,0,0.4238700039418566,,,0.0,True,6
239,0,,,0,0.4238700039418566,,,0.0,True,6
240,0,,,0,0.4238700039418566,,,0.0,True,6
241,0,,,0,0.4238700039418566,,,0.0,True,6
242,0,,,0,0.4238700039418566,,,0.0,True,6
243,0,,,0,0.4238700039418566,,,0.0,True,6
244,0,,,0,0.4238700039418566,,,0.0,True,6
245,0,,,0,0.4238700039418566,,,0.0,True,6
246,0,,,0,0.4238700039418566,,,0.0,True,6
247,0,,,0,0.4238700039418566,,,0.0,True,6
248,0,,,0,0.4238700039418566,,,0.0,True,6
249,0,,,0,0.4238700039418566,,,0.0,True,6
250,0,,,0,0.4238700039418566,,,0.0,True,6
251,0,,,0,0.4238700039418566,,,0.0,True,6
252,0,,,0,0.4238700039418566,,,0.0,True,6
253,0,,,0,0.4238700039418566,,,0.0,True,6
254,0,,,0,0.4238700039418566,,,0.0,True,6
255,0,,,0,0.4238700039418566,,,0.0,True,6
256,0,,,0,0.4238700039418566,,,0.0,True,6
257,0,,,0,0.4238700039418566,,,0.0,True,6
258,0,,,0,0.4238700039418566,,,0.0,True,6
259,0,,,0,0.4238700039418566,,,0.0,True,6
260,0,,,0,0.4238700039418566,,,0.0,True,6
261,0,,,0,0.4238700039418566,,,0.0,True,6
262,0,,,0,0.4238700039418566,,,0.0,True,6
263,0,,,0,0.4238700039418566,,,0.0,True,6
264,0,,,0,0.4238700039418566,,,0.0,True,6
265,0,,,0,0.4238700039418566,,,0.0,True,6
266,0,,,0,0.4238700039418566,,,0.0,True,6
267,0,,,0,0.4238700039418566,,,0.0,True,6
268,0,,,0,0.4238700039418566,,,0.0,True,6
269,0,,,0,0.4238700039418566,,,0.0,True,6
270,0,,,0,0.4238700039418566,,,0.0,True,6
271,0,,,0,0.4238700039418566,,,0.0,True,6
272,0,,,0,0.4238700039418566,,,0.0,True,6
273,0,,,0,0.4238700039418566,,,0.0,True,6
274,0,,,0,0.4238700039418566,,,0.0,True,6
275,0,,,0,0.4238700039418566,,,0.0,True,6
276,0,,,0,0.4238700039418566,,,0.0,True,6
277,0,,,0,0.4238700039418566,,,0.0,True,6
278,0,,,0,0.4238700039418566,,,0.0,True,6
279,0,,,0,0.4238700039418566,,,0.0,True,6
280,0,,,0,0.4238700039418566,,,0.0,True,6
281,0,,,0,0.4238700039418566,,,0.0,True,6
282,0,,,0,0.4238700039418566,,,0.0,True,6
283,0,,,0,0.4238700039418566,,,0.0,True,6
284,0,,,0,0.4238700039418566,,,0.0,True,6
285,0,,,0,0.4238700039418566,,,0.0,True,6
286,0,,,0,0.4238700039418566,,,0.0,True,6
287,0,,,0,0.4238700039418566,,,0.0,True,6
288,0,,,0,0.4238700039418566,,,0.0,True,6
289,0,,,0,0.4238700039418566,,,0.0,True,6
290,0,,,0,0.4238700039418566,,,0.0,True,6
291,0,,,0,0.4238700039418566,,,0.0,True,6
292,0,,,0,0.4238700039418566,,,0.0,True,6
293,0,,,0,0.4238700039418566,,,0.0,True,6
294,0,,,0,0.4238700039418566,,,0.0,True,6
295,0,,,0,0.4238700039418566,,,0.0,True,6
296,0,,,0,0.4238700039418566,,,0.0,True,6
297,0,,,0,0.4238700039418566,,,0.0,True,6
298,0,,,0,0.4238700039418566,,,0.0,True,6
299,0,,,0,0.4238700039418566,,,0.0,True,6
300,0,,,0,0.4238700039418566,,,0.0,True,6
301,0,,,0,0.4238700039418566,,,0.0,True,6
302,0,,,0,0.4238700039418566,,,0.0,True,6
303,0,,,0,0.4238700039418566,,,0.0,True,6
304,0,,,0,0.4238700039418566,,,0.0,True,6
305,0,,,0,0.4238700039418566,,,0.0,True,6
306,0,,,0,0.4238700039418566,,,0.0,True,6
307,0,,,0,0.4238700039418566,,,0.0,True,6
308,0,,,0,0.4238700039418566,,,0.0,True,6
309,0,,,0,0.4238700039418566,,,0.0,True,6
310,0,,,0,0.4238700039418566,,,0.0,True,6
311,0,,,0,0.4238700039418566,,,0.0,True,6
312,0,,,0,0.4238700039418566,,,0.0,True,6
313,0,,,0,0.4238700039418566,,,0.0,True,6
314,0,,,0,0.4238700039418566,,,0.0,True,6
315,0,,,0,0.4238700039418566,,,0.0,True,6
316,0,,,0,0.4238700039418566,,,0.0,True,6
317,0,,,0,0.4238700039418566,,,0.0,True,6
318,0,,,0,0.4238700039418566,,,0.0,True,6
319,0,,,0,0.4238700039418566,,,0.0,True,6
320,0,,,0,0.4238700039418566,,,0.0,True,6
321,0,,,0,0.4238700039418566,,,0.0,True,6
322,0,,,0,0.4238700039418566,,,0.0,True,6
323,0,,,0,0.4238700039418566,,,0.0,True,6
324,0,,,0,0.4238700039418566,,,0.0,True,6
325,0,,,0,0.4238700039418566,,,0.0,True,6
326,0,,,0,0.4238700039418566,,,0.0,True,6
327,0,,,0,0.4238700039418566,,,0.0,True,6
328,0,,,0,0.4238700039418566,,,0.0,True,6
329,0,,,0,0.4238700039418566,,,0.0,True,6
330,0,,,0,0.4238700039418566,,,0.0,True,6
331,0,,,0,0.4238700039418566,,,0.0,True,6
332,0,,,0,0.4238700039418566,,,0.0,True,6
333,0,,,0,0.4238700039418566,,,0.0,True,6
334,0,,,0,0.4238700039418566,,,0.0,True,6
335,0,,,0,0.4238700039418566,,,0.0,True,6
336,0,,,0,0.4238700039418566,,,0.0,True,6
337,0,,,0,0.4238700039418566,,,0.0,True,6
338,0,,,0,0.4238700039418566,,,0.0,True,6
339,0,,,0,0.4238700039418566,,,0.0,True,6
340,0,,,0,0.4238700039418566,,,0.0,True,6
341,0,,,0,0.4238700039418566,,,0.0,True,6
342,0,,,0,0.4238700039418566,,,0.0,True,6
343,0,,,0,0.4238700039418566,,,0.0,True,6
344,0,,,0,0.4238700039418566,,,0.0,True,6
345,0,,,0,0.4238700039418566,,,0.0,True,6
346,0,,,0,0.4238700039418566,,,0.0,True,6
347,0,,,0,0.4238700039418566,,,0.0,True,6
348,0,,,0,0.4238700039418566,,,0.0,True,6
349,0,,,0,0.4238700039418566,,,0.0,True,6
350,0,,,0,0.4238700039418566,,,0.0,True,6
351,0,,,0,0.4238700039418566,,,0.0,True,6
352,0,,,0,0.4238700039418566,,,0.0,True,6
353,0,,,0,0.4238700039418566,,,0.0,True,6
354,0,,,0,0.4238700039418566,,,0.0,True,6
355,0,,,0,0.4238700039418566,,,0.0,True,6
356,0,,,0,0.4238700039418566,,,0.0,True,6
357,0,,,0,0.4238700039418566,,,0.0,True,6
358,0,,,0,0.4238700039418566,,,0.0,True,6
359,0,,,0,0.4238700039418566,,,0.0,True,6
360,0,,,0,0.4238700039418566,,,0.0,True,6
361,0,,,0,0.4238700039418566,,,0.0,True,6
362,0,,,0,0.4238700039418566,,,0.0,True,6
363,0,,,0,0.4238700039418566,,,0.0,True,6
364,0,,,0,0.4238700039418566,,,0.0,True,6
365,0,,,0,0.4238700039418566,,,0.0,True,6
366,0,,,0,0.4238700039418566,,,0.0,True,6
367,0,,,0,0.4238700039418566,,,0.0,True,6
368,0,,,0,0.4238700039418566,,,0.0,True,6
369,0,,,0,0.4238700039418566,,,0.0,True,6
370,0,,,0,0.4238700039418566,,,0.0,True,6
371,0,,,0,0.4238700039418566,,,0.0,True,6
372,0,,,0,0.4238700039418566,,,0.0,True,6
373,0,,,0,0.4238700039418566,,,0.0,True,6
374,0,,,0,0.4238700039418566,,,0.0,True,6
375,0,,,0,0.4238700039418566,,,0.0,True,6
376,0,,,0,0.4238700039418566,,,0.0,True,6
377,0,,,0,0.4238700039418566,,,0.0,True,6
378,0,,,0,0.4238700039418566,,,0.0,True,6
379,0,,,0,0.4238700039418566,,,0.0,True,6
380,0,,,0,0.4238700039418566,,,0.0,True,6
381,0,,,0,0.4238700039418566,,,0.0,True,6
382,0,,,0,0.4238700039418566,,,0.0,True,6
383,0,,,0,0.4238700039418566,,,0.0,True,6
384,0,,,0,0.4238700039418566,,,0.0,True,6
385,0,,,0,0.4238700039418566,,,0.0,True,6
386,0,,,0,0.4238700039418566,,,0.0,True,6
387,0,,,0,0.4238700039418566,,,0.0,True,6
388,0,,,0,0.4238700039418566,,,0.0,True,6
389,0,,,0,0.4238700039418566,,,0.0,True,6
390,0,,,0,0.4238700039418566,,,0.0,True,6
391,0,,,0,0.4238700039418566,,,0.0,True,6
392,0,,,0,0.4238700039418566,,,0.0,True,6
393,0,,,0,0.4238700039418566,,,0.0,True,6
394,0,,,0,0.4238700039418566,,,0.0,True,6
395,0,,,0,0.4238700039418566,,,0.0,True,6
396,0,,,0,0.4238700039418566,,,0.0,True,6
397,0,,,0,0.4238700039418566,,,0.0,True,6
398,0,,,0,0.4238700039418566,,,0.0,True,6
399,0,,,0,0.4238700039418566,,,0.0,True,6
400,0,,,0,0.4238700039418566,,,0.0,True,6
401,0,,,0,0.4238700039418566,,,0.0,True,6
402,0,,,0,0.4238700039418566,,,0.0,True,6
403,0,,,0,0.4238700039418566,,,0.0,True,6
404,0,,,0,0.4238700039418566,,,0.0,True,6
405,0,,,0,0.4238700039418566,,,0.0,True,6
406,0,,,0,0.4238700039418566,,,0.0,True,6
407,0,,,0,0.4238700039418566,,,0.0,True,6
408,0,,,0,0.4238700039418566,,,0.0,True,6
409,0,,,0,0.4238700039418566,,,0.0,True,6
410,0,,,0,0.4238700039418566,,,0.0,True,6
411,0,,,0,0.4238700039418566,,,0.0,True,6
412,0,,,0,0.4238700039418566,,,0.0,True,6
413,0,,,0,0.4238700039418566,,,0.0,True,6
414,0,,,0,0.4238700039418566,,,0.0,True,6
415,0,,,0,0.4238700039418566,,,0.0,True,6
416,0,,,0,0.4238700039418566,,,0.0,True,6
417,0,,,0,0.4238700039418566,,,0.0,True,6
418,0,,,0,0.4238700039418566,,,0.0,True,6
419,0,,,0,0.4238700039418566,,,0.0,True,6
420,0,,,0,0.4238700039418566,,,0.0,True,6
421,0,,,0,0.4238700039418566,,,0.0,True,6
422,0,,,0,0.4238700039418566,,,0.0,True,6
423,0,,,0,0.4238700039418566,,,0.0,True,6
424,0,,,0,0.4238700039418566,,,0.0,True,6
425,0,,,0,0.4238700039418566,,,0.0,True,6
426,0,,,0,0.4238700039418566,,,0.0,True,6
427,0,,,0,0.4238700039418566,,,0.0,True,6
428,0,,,0,0.4238700039418566,,,0.0,True,6
429,0,,,0,0.4238700039418566,,,0.0,True,6
430,0,,,0,0.4238700039418566,,,0.0,True,6
431,0,,,0,0.4238700039418566,,,0.0,True,6
432,0,,,0,0.4238700039418566,,,0.0,True,6
433,0,,,0,0.4238700039418566,,,0.0,True,6
434,0,,,0,0.4238700039418566,,,0.0,True,6
435,0,,,0,0.4238700039418566,,,0.0,True,6
436,0,,,0,0.4238700039418566,,,0.0,True,6
437,0,,,0,0.4238700039418566,,,0.0,True,6
438,0,,,0,0.4238700039418566,,,0.0,True,6
439,0,,,0,0.4238700039418566,,,0.0,True,6
440,0,,,0,0.4238700039418566,,,0.0,True,6
441,0,,,0,0.4238700039418566,,,0.0,True,6
442,0,,,0,0.4238700039418566,,,0.0,True,6
443,0,,,0,0.4238700039418566,,,0.0,True,6
444,0,,,0,0.4238700039418566,,,0.0,True,6
445,0,,,0,0.4238700039418566,,,0.0,True,6
446,0,,,0,0.4238700039418566,,,0.0,True,6
447,0,,,0,0.4238700039418566,,,0.0,True,6
448,0,,,0,0.4238700039418566,,,0.0,True,6
449,0,,,0,0.4238700039418566,,,0.0,True,6
450,0,,,0,0.4238700039418566,,,0.0,True,6
451,0,,,0,0.4238700039418566,,,0.0,True,6
452,0,,,0,0.4238700039418566,,,0.0,True,6
453,0,,,0,0.4238700039418566,,,0.0,True,6
454,0,,,0,0.4238700039418566,,,0.0,True,6
455,0,,,0,0.4238700039418566,,,0.0,True,6
456,0,,,0,0.4238700039418566,,,0.0,True,6
457,0,,,0,0.4238700039418566,,,0.0,True,6
458,0,,,0,0.4238700039418566,,,0.0,True,6
459,0,,,0,0.4238700039418566,,,0.0,True,6
460,0,,,0,0.4238700039418566,,,0.0,True,6
461,0,,,0,0.4238700039418566,,,0.0,True,6
462,0,,,0,0.4238700039418566,,,0.0,True,6
463,0,,,0,0.4238700039418566,,,0.0,True,6
464,0,,,0,0.4238700039418566,,,0.0,True,6
465,0,,,0,0.4238700039418566,,,0.0,True,6
466,0,,,0,0.4238700039418566,,,0.0,True,6
467,0,,,0,0.4238700039418566,,,0.0,True,6
468,0,,,0,0.4238700039418566,,,0.0,True,6
469,0,,,0,0.4238700039418566,,,0.0,True,6
470,0,,,0,0.4238700039418566,,,0.0,True,6
471,0,,,0,0.4238700039418566,,,0.0,True,6
472,0,,,0,0.4238700039418566,,,0.0,True,6
473,0,,,0,0.4238700039418566,,,0.0,True,6
474,0,,,0,0.4238700039418566,,,0.0,True,6
475,0,,,0,0.4238700039418566,,,0.0,True,6
476,0,,,0,0.4238700039418566,,,0.0,True,6
477,0,,,0,0.4238700039418566,,,0.0,True,6
478,0,,,0,0.4238700039418566,,,0.0,True,6
479,0,,,0,0.4238700039418566,,,0.0,True,6
480,0,,,0,0.4238700039418566,,,0.0,True,6
481,0,,,0,0.4238700039418566,,,0.0,True,6
482,0,,,0,0.4238700039418566,,,0.0,True,6
483,0,,,0,0.4238700039418566,,,0.0,True,6
484,0,,,0,0.4238700039418566,,,0.0,True,6
485,0,,,0,0.4238700039418566,,,0.0,True,6
486,0,,,0,0.4238700039418566,,,0.0,True,6
487,0,,,0,0.4238700039418566,,,0.0,True,6
488,0,,,0,0.4238700039418566,,,0.0,True,6
489,0,,,0,0.4238700039418566,,,0.0,True,6
490,0,,,0,0.4238700039418566,,,0.0,True,6
491,0,,,0,0.4238700039418566,,,0.0,True,6
492,0,,,0,0.4238700039418566,,,0.0,True,6
493,0,,,0,0.4238700039418566,,,0.0,True,6
494,0,,,0,0.4238700039418566,,,0.0,True,6
495,0,,,0,0.4238700039418566,,,0.0,True,6
496,0,,,0,0.4238700039418566,,,0.0,True,6
497,0,,,0,0.4238700039418566,,,0.0,True,6
498,0,,,0,0.4238700039418566,,,0.0,True,6
499,0,,,0,0.4238700039418566,,,0.0,True,6
500,0,,,0,0.4238700039418566,,,0.0,True,6
501,0,,,0,0.4238700039418566,,,0.0,True,6
502,0,,,0,0.4238700039418566,,,0.0,True,6
503,0,,,0,0.4238700039418566,,,0.0,True,6
504,0,,,0,0.4238700039418566,,,0.0,True,6
505,0,,,0,0.4238700039418566,,,0.0,True,6
506,0,,,0,0.4238700039418566,,,0.0,True,6
507,0,,,0,0.4238700039418566,,,0.0,True,6
508,0,,,0,0.4238700039418566,,,0.0,True,6
509,0,,,0,0.4238700039418566,,,0.0,True,6
510,0,,,0,0.4238700039418566,,,0.0,True,6
511,0,,,0,0.4238700039418566,,,0.0,True,6
512,0,,,0,0.4238700039418566,,,0.0,True,6
513,0,,,0,0.4238700039418566,,,0.0,True,6
514,0,,,0,0.4238700039418566,,,0.0,True,6
515,0,,,0,0.4238700039418566,,,0.0,True,6
516,0,,,0,0.4238700039418566,,,0.0,True,6
517,0,,,0,0.4238700039418566,,,0.0,True,6
518,0,,,0,0.4238700039418566,,,0.0,True,6
519,0,,,0,0.4238700039418566,,,0.0,True,6
520,0,,,0,0.4238700039418566,,,0.0,True,6
521,0,,,0,0.4238700039418566,,,0.0,True,6
522,0,,,0,0.4238700039418566,,,0.0,True,6
523,0,,,0,0.4238700039418566,,,0.0,True,6
524,0,,,0,0.4238700039418566,,,0.0,True,6
525,0,,,0,0.4238700039418566,,,0.0,True,6
526,0,,,0,0.4238700039418566,,,0.0,True,6
527,0,,,0,0.4238700039418566,,,0.0,True,6
528,0,,,0,0.4238700039418566,,,0.0,True,6
529,0,,,0,0.4238700039418566,,,0.0,True,6
530,0,,,0,0.4238700039418566,,,0.0,True,6
531,0,,,0,0.4238700039418566,,,0.0,True,6
532,0,,,0,0.4238700039418566,,,0.0,True,6
533,0,,,0,0.4238700039418566,,,0.0,True,6
534,0,,,0,0.4238700039418566,,,0.0,True,6
535,0,,,0,0.4238700039418566,,,0.0,True,6
536,0,,,0,0.4238700039418566,,,0.0,True,6
537,0,,,0,0.4238700039418566,,,0.0,True,6
538,0,,,0,0.4238700039418566,,,0.0,True,6
539,0,,,0,0.4238700039418566,,,0.0,True,6
540,0,,,0,0.4238700039418566,,,0.0,True,6
541,0,,,0,0.4238700039418566,,,0.0,True,6
542,0,,,0,0.4238700039418566,,,0.0,True,6
543,0,,,0,0.4238700039418566,,,0.0,True,6
544,0,,,0,0.4238700039418566,,,0.0,True,6
545,0,,,0,0.4238700039418566,,,0.0,True,6
546,0,,,0,0.4238700039418566,,,0.0,True,6
547,0,,,0,0.4238700039418566,,,0.0,True,6
548,0,,,0,0.4238700039418566,,,0.0,True,6
549,0,,,0,0.4238700039418566,,,0.0,True,6
550,0,,,0,0.4238700039418566,,,0.0,True,6
551,0,,,0,0.4238700039418566,,,0.0,True,6
552,0,,,0,0.4238700039418566,,,0.0,True,6
553,0,,,0,0.4238700039418566,,,0.0,True,6
554,0,,,0,0.4238700039418566,,,0.0,True,6
555,0,,,0,0.4238700039418566,,,0.0,True,6
556,0,,,0,0.4238700039418566,,,0.0,True,6
557,0,,,0,0.4238700039418566,,,0.0,True,6
558,0,,,0,0.4238700039418566,,,0.0,True,6
559,0,,,0,0.4238700039418566,,,0.0,True,6
560,0,,,0,0.4238700039418566,,,0.0,True,6
561,0,,,0,0.4238700039418566,,,0.0,True,6
562,0,,,0,0.4238700039418566,,,0.0,True,6
563,0,,,0,0.4238700039418566,,,0.0,True,6
564,0,,,0,0.4238700039418566,,,0.0,True,6
565,0,,,0,0.4238700039418566,,,0.0,True,6
566,0,,,0,0.4238700039418566,,,0.0,True,6
567,0,,,0,0.4238700039418566,,,0.0,True,6
568,0,,,0,0.4238700039418566,,,0.0,True,6
569,0,,,0,0.4238700039418566,,,0.0,True,6
570,0,,,0,0.4238700039418566,,,0.0,True,6
571,0,,,0,0.4238700039418566,,,0.0,True,6
572,0,,,0,0.4238700039418566,,,0.0,True,6
573,0,,,0,0.4238700039418566,,,0.0,True,6
574,0,,,0,0.4238700039418566,,,0.0,True,6
575,0,,,0,0.4238700039418566,,,0.0,True,6
576,0,,,0,0.4238700039418566,,,0.0,True,6
577,0,,,0,0.4238700039418566,,,0.0,True,6
578,0,,,0,0.4238700039418566,,,0.0,True,6
579,0,,,0,0.4238700039418566,,,0.0,True,6
580,0,,,0,0.4238700039418566,,,0.0,True,6
581,0,,,0,0.4238700039418566,,,0.0,True,6
582,0,,,0,0.4238700039418566,,,0.0,True,6
583,0,,,0,0.4238700039418566,,,0.0,True,6
584,0,,,0,0.4238700039418566,,,0.0,True,6
585,0,,,0,0.4238700039418566,,,0.0,True,6
586,0,,,0,0.4238700039418566,,,0.0,True,6
587,0,,,0,0.4238700039418566,,,0.0,True,6
588,0,,,0,0.4238700039418566,,,0.0,True,6
589,0,,,0,0.4238700039418566,,,0.0,True,6
590,0,,,0,0.4238700039418566,,,0.0,True,6
591,0,,,0,0.4238700039418566,,,0.0,True,6
592,0,,,0,0.4238700039418566,,,0.0,True,6
593,0,,,0,0.4238700039418566,,,0.0,True,6
594,0,,,0,0.4238700039418566,,,0.0,True,6
595,0,,,0,0.4238700039418566,,,0.0,True,6
596,0,,,0,0.4238700039418566,,,0.0,True,6
597,0,,,0,0.4238700039418566,,,0.0,True,6
598,0,,,0,0.4238700039418566,,,0.0,True,6
599,0,,,0,0.4238700039418566,,,0.0,True,6
600,0,,,0,0.4238700039418566,,,0.0,True,6
601,0,,,0,0.4238700039418566,,,0.0,True,6
602,0,,,0,0.4238700039418566,,,0.0,True,6
603,0,,,0,0.4238700039418566,,,0.0,True,6
604,0,,,0,0.4238700039418566,,,0.0,True,6
605,0,,,0,0.4238700039418566,,,0.0,True,6
606,0,,,0,0.4238700039418566,,,0.0,True,6
607,0,,,0,0.4238700039418566,,,0.0,True,6
608,0,,,0,0.4238700039418566,,,0.0,True,6
609,0,,,0,0.4238700039418566,,,0.0,True,6
610,0,,,0,0.4238700039418566,,,0.0,True,6
611,0,,,0,0.4238700039418566,,,0.0,True,6
612,0,,,0,0.4238700039418566,,,0.0,True,6
613,0,,,0,0.4238700039418566,,,0.0,True,6
614,0,,,0,0.4238700039418566,,,0.0,True,6
615,0,,,0,0.4238700039418566,,,0.0,True,6
616,0,,,0,0.4238700039418566,,,0.0,True,6
617,0,,,0,0.4238700039418566,,,0.0,True,6
618,0,,,0,0.4238700039418566,,,0.0,True,6
619,0,,,0,0.4238700039418566,,,0.0,True,6
620,0,,,0,0.4238700039418566,,,0.0,True,6
621,0,,,0,0.4238700039418566,,,0.0,True,6
622,0,,,0,0.4238700039418566,,,0.0,True,6
623,0,,,0,0.4238700039418566,,,0.0,True,6
624,0,,,0,0.4238700039418566,,,0.0,True,6
625,0,,,0,0.4238700039418566,,,0.0,True,6
626,0,,,0,0.4238700039418566,,,0.0,True,6
627,0,,,0,0.4238700039418566,,,0.0,True,6
628,0,,,0,0.4238700039418566,,,0.0,True,6
629,0,,,0,0.4238700039418566,,,0.0,True,6
630,0,,,0,0.4238700039418566,,,0.0,True,6
631,0,,,0,0.4238700039418566,,,0.0,True,6
632,0,,,0,0.4238700039418566,,,0.0,True,6
633,0,,,0,0.4238700039418566,,,0.0,True,6
634,0,,,0,0.4238700039418566,,,0.0,True,6
635,0,,,0,0.4238700039418566,,,0.0,True,6
636,0,,,0,0.4238700039418566,,,0.0,True,6
637,0,,,0,0.4238700039418566,,,0.0,True,6
638,0,,,0,0.4238700039418566,,,0.0,True,6
639,0,,,0,0.4238700039418566,,,0.0,True,6
640,0,,,0,0.4238700039418566,,,0.0,True,6
641,0,,,0,0.4238700039418566,,,0.0,True,6
642,0,,,0,0.4238700039418566,,,0.0,True,6
643,0,,,0,0.4238700039418566,,,0.0,True,6
644,0,,,0,0.4238700039418566,,,0.0,True,6
645,0,,,0,0.4238700039418566,,,0.0,True,6
646,0,,,0,0.4238700039418566,,,0.0,True,6
647,0,,,0,0.4238700039418566,,,0.0,True,6
648,0,,,0,0.4238700039418566,,,0.0,True,6
649,0,,,0,0.4238700039418566,,,0.0,True,6
650,0,,,0,0.4238700039418566,,,0.0,True,6
651,0,,,0,0.4238700039418566,,,0.0,True,6
652,0,,,0,0.4238700039418566,,,0.0,True,6
653,0,,,0,0.4238700039418566,,,0.0,True,6
654,0,,,0,0.4238700039418566,,,0.0,True,6
655,0,,,0,0.4238700039418566,,,0.0,True,6
656,0,,,0,0.4238700039418566,,,0.0,True,6
657,0,,,0,0.4238700039418566,,,0.0,True,6
658,0,,,0,0.4238700039418566,,,0.0,True,6
659,0,,,0,0.4238700039418566,,,0.0,True,6
660,0,,,0,0.4238700039418566,,,0.0,True,6
661,0,,,0,0.4238700039418566,,,0.0,True,6
662,0,,,0,0.4238700039418566,,,0.0,True,6
663,0,,,0,0.4238700039418566,,,0.0,True,6
664,0,,,0,0.4238700039418566,,,0.0,True,6
665,0,,,0,0.4238700039418566,,,0.0,True,6
666,0,,,0,0.4238700039418566,,,0.0,True,6
667,0,,,0,0.4238700039418566,,,0.0,True,6
668,0,,,0,0.4238700039418566,,,0.0,True,6
669,0,,,0,0.4238700039418566,,,0.0,True,6
670,0,,,0,0.4238700039418566,,,0.0,True,6
671,0,,,0,0.4238700039418566,,,0.0,True,6
672,0,,,0,0.4238700039418566,,,0.0,True,6
673,0,,,0,0.4238700039418566,,,0.0,True,6
674,0,,,0,0.4238700039418566,,,0.0,True,6
675,0,,,0,0.4238700039418566,,,0.0,True,6
676,0,,,0,0.4238700039418566,,,0.0,True,6
677,0,,,0,0.4238700039418566,,,0.0,True,6
678,0,,,0,0.4238700039418566,,,0.0,True,6
679,0,,,0,0.4238700039418566,,,0.0,True,6
680,0,,,0,0.4238700039418566,,,0.0,True,6
681,0,,,0,0.4238700039418566,,,0.0,True,6
682,0,,,0,0.4238700039418566,,,0.0,True,6
683,0,,,0,0.4238700039418566,,,0.0,True,6
684,0,,,0,0.4238700039418566,,,0.0,True,6
685,0,,,0,0.4238700039418566,,,0.0,True,6
686,0,,,0,0.4238700039418566,,,0.0,True,6
687,0,,,0,0.4238700039418566,,,0.0,True,6
688,0,,,0,0.4238700039418566,,,0.0,True,6
689,0,,,0,0.4238700039418566,,,0.0,True,6
690,0,,,0,0.4238700039418566,,,0.0,True,6
691,0,,,0,0.4238700039418566,,,0.0,True,6
692,0,,,0,0.4238700039418566,,,0.0,True,6
693,0,,,0,0.4238700039418566,,,0.0,True,6
694,0,,,0,0.4238700039418566,,,0.0,True,6
695,0,,,0,0.4238700039418566,,,0.0,True,6
696,0,,,0,0.4238700039418566,,,0.0,True,6
697,0,,,0,0.4238700039418566,,,0.0,True,6
698,0,,,0,0.4238700039418566,,,0.0,True,6
699,0,,,0,0.4238700039418566,,,0.0,True,6
700,0,,,0,0.4238700039418566,,,0.0,True,6
701,0,,,0,0.4238700039418566,,,0.0,True,6
702,0,,,0,0.4238700039418566,,,0.0,True,6
703,0,,,0,0.4238700039418566,,,0.0,True,6
704,0,,,0,0.4238700039418566,,,0.0,True,6
705,0,,,0,0.4238700039418566,,,0.0,True,6
706,0,,,0,0.4238700039418566,,,0.0,True,6
707,0,,,0,0.4238700039418566,,,0.0,True,6
708,0,,,0,0.4238700039418566,,,0.0,True,6
709,0,,,0,0.4238700039418566,,,0.0,True,6
710,0,,,0,0.4238700039418566,,,0.0,True,6
711,0,,,0,0.4238700039418566,,,0.0,True,6
712,0,,,0,0.4238700039418566,,,0.0,True,6
713,0,,,0,0.4238700039418566,,,0.0,True,6
714,0,,,0,0.4238700039418566,,,0.0,True,6
715,0,,,0,0.4238700039418566,,,0.0,True,6
716,0,,,0,0.4238700039418566,,,0.0,True,6
717,0,,,0,0.4238700039418566,,,0.0,True,6
718,0,,,0,0.4238700039418566,,,0.0,True,6
719,0,,,0,0.4238700039418566,,,0.0,True,6
720,0,,,0,0.4238700039418566,,,0.0,True,6
721,0,,,0,0.4238700039418566,,,0.0,True,6
722,0,,,0,0.4238700039418566,,,0.0,True,6
723,0,,,0,0.4238700039418566,,,0.0,True,6
724,0,,,0,0.4238700039418566,,,0.0,True,6
725,0,,,0,0.4238700039418566,,,0.0,True,6
726,0,,,0,0.4238700039418566,,,0.0,True,6
727,0,,,0,0.4238700039418566,,,0.0,True,6
728,0,,,0,0.4238700039418566,,,0.0,True,6
729,0,,,0,0.4238700039418566,,,0.0,True,6
730,0,,,0,0.4238700039418566,,,0.0,True,6
731,0,,,0,0.4238700039418566,,,0.0,True,6
732,0,,,0,0.4238700039418566,,,0.0,True,6
733,0,,,0,0.4238700039418566,,,0.0,True,6
734,0,,,0,0.4238700039418566,,,0.0,True,6
735,0,,,0,0.4238700039418566,,,0.0,True,6
736,0,,,0,0.4238700039418566,,,0.0,True,6
737,0,,,0,0.4238700039418566,,,0.0,True,6
738,0,,,0,0.4238700039418566,,,0.0,True,6
739,0,,,0,0.4238700039418566,,,0.0,True,6
740,0,,,0,0.4238700039418566,,,0.0,True,6
741,0,,,0,0.4238700039418566,,,0.0,True,6
742,0,,,0,0.4238700039418566,,,0.0,True,6
743,0,,,0,0.4238700039418566,,,0.0,True,6
744,0,,,0,0.4238700039418566,,,0.0,True,6
745,0,,,0,0.4238700039418566,,,0.0,True,6
746,0,,,0,0.4238700039418566,,,0.0,True,6
747,0,,,0,0.4238700039418566,,,0.0,True,6
748,0,,,0,0.4238700039418566,,,0.0,True,6
749,0,,,0,0.4238700039418566,,,0.0,True,6
750,0,,,0,0.4238700039418566,,,0.0,True,6
751,0,,,0,0.4238700039418566,,,0.0,True,6
752,0,,,0,0.4238700039418566,,,0.0,True,6
753,0,,,0,0.4238700039418566,,,0.0,True,6
754,0,,,0,0.4238700039418566,,,0.0,True,6
755,0,,,0,0.4238700039418566,,,0.0,True,6
756,0,,,0,0.4238700039418566,,,0.0,True,6
757,0,,,0,0.4238700039418566,,,0.0,True,6
758,0,,,0,0.4238700039418566,,,0.0,True,6
759,0,,,0,0.4238700039418566,,,0.0,True,6
760,0,,,0,0.4238700039418566,,,0.0,True,6
761,0,,,0,0.4238700039418566,,,0.0,True,6
762,0,,,0,0.4238700039418566,,,0.0,True,6
763,0,,,0,0.4238700039418566,,,0.0,True,6
764,0,,,0,0.4238700039418566,,,0.0,True,6
765,0,,,0,0.4238700039418566,,,0.0,True,6
766,0,,,0,0.4238700039418566,,,0.0,True,6
767,0,,,0,0.4238700039418566,,,0.0,True,6
768,0,,,0,0.4238700039418566,,,0.0,True,6
769,0,,,0,0.4238700039418566,,,0.0,True,6
770,0,,,0,0.4238700039418566,,,0.0,True,6
771,0,,,0,0.4238700039418566,,,0.0,True,6
772,0,,,0,0.4238700039418566,,,0.0,True,6
773,0,,,0,0.4238700039418566,,,0.0,True,6
774,0,,,0,0.4238700039418566,,,0.0,True,6
775,0,,,0,0.4238700039418566,,,0.0,True,6
776,0,,,0,0.4238700039418566,,,0.0,True,6
777,0,,,0,0.4238700039418566,,,0.0,True,6
778,0,,,0,0.4238700039418566,,,0.0,True,6
779,0,,,0,0.4238700039418566,,,0.0,True,6
780,0,,,0,0.4238700039418566,,,0.0,True,6
781,0,,,0,0.4238700039418566,,,0.0,True,6
782,0,,,0,0.4238700039418566,,,0.0,True,6
783,0,,,0,0.4238700039418566,,,0.0,True,6
784,0,,,0,0.4238700039418566,,,0.0,True,6
785,0,,,0,0.4238700039418566,,,0.0,True,6
786,0,,,0,0.4238700039418566,,,0.0,True,6
787,0,,,0,0.4238700039418566,,,0.0,True,6
788,0,,,0,0.4238700039418566,,,0.0,True,6
789,0,,,0,0.4238700039418566,,,0.0,True,6
790,0,,,0,0.4238700039418566,,,0.0,True,6
791,0,,,0,0.4238700039418566,,,0.0,True,6
792,0,,,0,0.4238700039418566,,,0.0,True,6
793,0,,,0,0.4238700039418566,,,0.0,True,6
794,0,,,0,0.4238700039418566,,,0.0,True,6
795,0,,,0,0.4238700039418566,,,0.0,True,6
796,0,,,0,0.4238700039418566,,,0.0,True,6
797,0,,,0,0.4238700039418566,,,0.0,True,6
798,0,,,0,0.4238700039418566,,,0.0,True,6
799,0,,,0,0.4238700039418566,,,0.0,True,6
800,0,,,0,0.4238700039418566,,,0.0,True,6
801,0,,,0,0.4238700039418566,,,0.0,True,6
802,0,,,0,0.4238700039418566,,,0.0,True,6
803,0,,,0,0.4238700039418566,,,0.0,True,6
804,0,,,0,0.4238700039418566,,,0.0,True,6
805,0,,,0,0.4238700039418566,,,0.0,True,6
806,0,,,0,0.4238700039418566,,,0.0,True,6
807,0,,,0,0.4238700039418566,,,0.0,True,6
808,0,,,0,0.4238700039418566,,,0.0,True,6
809,0,,,0,0.4238700039418566,,,0.0,True,6
810,0,,,0,0.4238700039418566,,,0.0,True,6
811,0,,,0,0.4238700039418566,,,0.0,True,6
812,0,,,0,0.4238700039418566,,,0.0,True,6
813,0,,,0,0.4238700039418566,,,0.0,True,6
814,0,,,0,0.4238700039418566,,,0.0,True,6
815,0,,,0,0.4238700039418566,,,0.0,True,6
816,0,,,0,0.4238700039418566,,,0.0,True,6
817,0,,,0,0.4238700039418566,,,0.0,True,6
818,0,,,0,0.4238700039418566,,,0.0,True,6
819,0,,,0,0.4238700039418566,,,0.0,True,6
820,0,,,0,0.4238700039418566,,,0.0,True,6
821,0,,,0,0.4238700039418566,,,0.0,True,6
822,0,,,0,0.4238700039418566,,,0.0,True,6
823,0,,,0,0.4238700039418566,,,0.0,True,6
824,0,,,0,0.4238700039418566,,,0.0,True,6
825,0,,,0,0.4238700039418566,,,0.0,True,6
826,0,,,0,0.4238700039418566,,,0.0,True,6
827,0,,,0,0.4238700039418566,,,0.0,True,6
828,0,,,0,0.4238700039418566,,,0.0,True,6
829,0,,,0,0.4238700039418566,,,0.0,True,6
830,0,,,0,0.4238700039418566,,,0.0,True,6
831,0,,,0,0.4238700039418566,,,0.0,True,6
832,0,,,0,0.4238700039418566,,,0.0,True,6
833,0,,,0,0.4238700039418566,,,0.0,True,6
834,0,,,0,0.4238700039418566,,,0.0,True,6
835,0,,,0,0.4238700039418566,,,0.0,True,6
836,0,,,0,0.4238700039418566,,,0.0,True,6
837,0,,,0,0.4238700039418566,,,0.0,True,6
838,0,,,0,0.4238700039418566,,,0.0,True,6
839,0,,,0,0.4238700039418566,,,0.0,True,6
840,0,,,0,0.4238700039418566,,,0.0,True,6
841,0,,,0,0.4238700039418566,,,0.0,True,6
842,0,,,0,0.4238700039418566,,,0.0,True,6
843,0,,,0,0.4238700039418566,,,0.0,True,6
844,0,,,0,0.4238700039418566,,,0.0,True,6
845,0,,,0,0.4238700039418566,,,0.0,True,6
846,0,,,0,0.4238700039418566,,,0.0,True,6
847,0,,,0,0.4238700039418566,,,0.0,True,6
848,0,,,0,0.4238700039418566,,,0.0,True,6
849,0,,,0,0.4238700039418566,,,0.0,True,6
850,0,,,0,0.4238700039418566,,,0.0,True,6
851,0,,,0,0.4238700039418566,,,0.0,True,6
852,0,,,0,0.4238700039418566,,,0.0,True,6
853,0,,,0,0.4238700039418566,,,0.0,True,6
854,0,,,0,0.4238700039418566,,,0.0,True,6
855,0,,,0,0.4238700039418566,,,0.0,True,6
856,0,,,0,0.4238700039418566,,,0.0,True,6
857,0,,,0,0.4238700039418566,,,0.0,True,6
858,0,,,0,0.4238700039418566,,,0.0,True,6
859,0,,,0,0.4238700039418566,,,0.0,True,6
860,0,,,0,0.4238700039418566,,,0.0,True,6
861,0,,,0,0.4238700039418566,,,0.0,True,6
862,0,,,0,0.4238700039418566,,,0.0,True,6
863,0,,,0,0.4238700039418566,,,0.0,True,6
864,0,,,0,0.4238700039418566,,,0.0,True,6
865,0,,,0,0.4238700039418566,,,0.0,True,6
866,0,,,0,0.4238700039418566,,,0.0,True,6
867,0,,,0,0.4238700039418566,,,0.0,True,6
868,0,,,0,0.4238700039418566,,,0.0,True,6
869,0,,,0,0.4238700039418566,,,0.0,True,6
870,0,,,0,0.4238700039418566,,,0.0,True,6
871,0,,,0,0.4238700039418566,,,0.0,True,6
872,0,,,0,0.4238700039418566,,,0.0,True,6
873,0,,,0,0.4238700039418566,,,0.0,True,6
874,0,,,0,0.4238700039418566,,,0.0,True,6
875,0,,,0,0.4238700039418566,,,0.0,True,6
876,0,,,0,0.4238700039418566,,,0.0,True,6
877,0,,,0,0.4238700039418566,,,0.0,True,6
878,0,,,0,0.4238700039418566,,,0.0,True,6
879,0,,,0,0.4238700039418566,,,0.0,True,6
880,0,,,0,0.4238700039418566,,,0.0,True,6
881,0,,,0,0.4238700039418566,,,0.0,True,6
882,0,,,0,0.4238700039418566,,,0.0,True,6
883,0,,,0,0.4238700039418566,,,0.0,True,6
884,0,,,0,0.4238700039418566,,,0.0,True,6
885,0,,,0,0.4238700039418566,,,0.0,True,6
886,0,,,0,0.4238700039418566,,,0.0,True,6
887,0,,,0,0.4238700039418566,,,0.0,True,6
888,0,,,0,0.4238700039418566,,,0.0,True,6
889,0,,,0,0.4238700039418566,,,0.0,True,6
890,0,,,0,0.4238700039418566,,,0.0,True,6
891,0,,,0,0.4238700039418566,,,0.0,True,6
892,0,,,0,0.4238700039418566,,,0.0,True,6
893,0,,,0,0.4238700039418566,,,0.0,True,6
894,0,,,0,0.4238700039418566,,,0.0,True,6
895,0,,,0,0.4238700039418566,,,0.0,True,6
896,0,,,0,0.4238700039418566,,,0.0,True,6
897,0,,,0,0.4238700039418566,,,0.0,True,6
898,0,,,0,0.4238700039418566,,,0.0,True,6
899,0,,,0,0.4238700039418566,,,0.0,True,6
900,0,,,0,0.4238700039418566,,,0.0,True,6
901,0,,,0,0.4238700039418566,,,0.0,True,6
902,0,,,0,0.4238700039418566,,,0.0,True,6
903,0,,,0,0.4238700039418566,,,0.0,True,6
904,0,,,0,0.4238700039418566,,,0.0,True,6
905,0,,,0,0.4238700039418566,,,0.0,True,6
906,0,,,0,0.4238700039418566,,,0.0,True,6
907,0,,,0,0.4238700039418566,,,0.0,True,6
908,0,,,0,0.4238700039418566,,,0.0,True,6
909,0,,,0,0.4238700039418566,,,0.0,True,6
910,0,,,0,0.4238700039418566,,,0.0,True,6
911,0,,,0,0.4238700039418566,,,0.0,True,6
912,0,,,0,0.4238700039418566,,,0.0,True,6
913,0,,,0,0.4238700039418566,,,0.0,True,6
914,0,,,0,0.4238700039418566,,,0.0,True,6
915,0,,,0,0.4238700039418566,,,0.0,True,6
916,0,,,0,0.4238700039418566,,,0.0,True,6
917,0,,,0,0.4238700039418566,,,0.0,True,6
918,0,,,0,0.4238700039418566,,,0.0,True,6
919,0,,,0,0.4238700039418566,,,0.0,True,6
920,0,,,0,0.4238700039418566,,,0.0,True,6
921,0,,,0,0.4238700039418566,,,0.0,True,6
922,0,,,0,0.4238700039418566,,,0.0,True,6
923,0,,,0,0.4238700039418566,,,0.0,True,6
924,0,,,0,0.4238700039418566,,,0.0,True,6
925,0,,,0,0.4238700039418566,,,0.0,True,6
926,0,,,0,0.4238700039418566,,,0.0,True,6
927,0,,,0,0.4238700039418566,,,0.0,True,6
928,0,,,0,0.4238700039418566,,,0.0,True,6
929,0,,,0,0.4238700039418566,,,0.0,True,6
930,0,,,0,0.4238700039418566,,,0.0,True,6
931,0,,,0,0.4238700039418566,,,0.0,True,6
932,0,,,0,0.4238700039418566,,,0.0,True,6
933,0,,,0,0.4238700039418566,,,0.0,True,6
934,0,,,0,0.4238700039418566,,,0.0,True,6
935,0,,,0,0.4238700039418566,,,0.0,True,6
936,0,,,0,0.4238700039418566,,,0.0,True,6
937,0,,,0,0.4238700039418566,,,0.0,True,6
938,0,,,0,0.4238700039418566,,,0.0,True,6
939,0,,,0,0.4238700039418566,,,0.0,True,6
940,0,,,0,0.4238700039418566,,,0.0,True,6
941,0,,,0,0.4238700039418566,,,0.0,True,6
942,0,,,0,0.4238700039418566,,,0.0,True,6
943,0,,,0,0.4238700039418566,,,0.0,True,6
944,0,,,0,0.4238700039418566,,,0.0,True,6
945,0,,,0,0.4238700039418566,,,0.0,True,6
946,0,,,0,0.4238700039418566,,,0.0,True,6
947,0,,,0,0.4238700039418566,,,0.0,True,6
948,0,,,0,0.4238700039418566,,,0.0,True,6
949,0,,,0,0.4238700039418566,,,0.0,True,6
950,0,,,0,0.4238700039418566,,,0.0,True,6
951,0,,,0,0.4238700039418566,,,0.0,True,6
952,0,,,0,0.4238700039418566,,,0.0,True,6
953,0,,,0,0.4238700039418566,,,0.0,True,6
954,0,,,0,0.4238700039418566,,,0.0,True,6
955,0,,,0,0.4238700039418566,,,0.0,True,6
956,0,,,0,0.4238700039418566,,,0.0,True,6
957,0,,,0,0.4238700039418566,,,0.0,True,6
958,0,,,0,0.4238700039418566,,,0.0,True,6
959,0,,,0,0.4238700039418566,,,0.0,True,6
960,0,,,0,0.4238700039418566,,,0.0,True,6
961,0,,,0,0.4238700039418566,,,0.0,True,6
962,0,,,0,0.4238700039418566,,,0.0,True,6
963,0,,,0,0.4238700039418566,,,0.0,True,6
964,0,,,0,0.4238700039418566,,,0.0,True,6
965,0,,,0,0.4238700039418566,,,0.0,True,6
966,0,,,0,0.4238700039418566,,,0.0,True,6
967,0,,,0,0.4238700039418566,,,0.0,True,6
968,0,,,0,0.4238700039418566,,,0.0,True,6
969,0,,,0,0.4238700039418566,,,0.0,True,6
970,0,,,0,0.4238700039418566,,,0.0,True,6
971,0,,,0,0.4238700039418566,,,0.0,True,6
972,0,,,0,0.4238700039418566,,,0.0,True,6
973,0,,,0,0.4238700039418566,,,0.0,True,6
974,0,,,0,0.4238700039418566,,,0.0,True,6
975,0,,,0,0.4238700039418566,,,0.0,True,6
976,0,,,0,0.4238700039418566,,,0.0,True,6
977,0,,,0,0.4238700039418566,,,0.0,True,6
978,0,,,0,0.4238700039418566,,,0.0,True,6
979,0,,,0,0.4238700039418566,,,0.0,True,6
980,0,,,0,0.4238700039418566,,,0.0,True,6
981,0,,,0,0.4238700039418566,,,0.0,True,6
982,0,,,0,0.4238700039418566,,,0.0,True,6
983,0,,,0,0.4238700039418566,,,0.0,True,6
984,0,,,0,0.4238700039418566,,,0.0,True,6
985,0,,,0,0.4238700039418566,,,0.0,True,6
986,0,,,0,0.4238700039418566,,,0.0,True,6
987,0,,,0,0.4238700039418566,,,0.0,True,6
988,0,,,0,0.4238700039418566,,,0.0,True,6
989,0,,,0,0.4238700039418566,,,0.0,True,6
990,0,,,0,0.4238700039418566,,,0.0,True,6
991,0,,,0,0.4238700039418566,,,0.0,True,6
992,0,,,0,0.4238700039418566,,,0.0,True,6
993,0,,,0,0.4238700039418566,,,0.0,True,6
994,0,,,0,0.4238700039418566,,,0.0,True,6
995,0,,,0,0.4238700039418566,,,0.0,True,6
996,0,,,0,0.4238700039418566,,,0.0,True,6
997,0,,,0,0.4238700039418566,,,0.0,True,6
998,0,,,0,0.4238700039418566,,,0.0,True,6
999,0,,,0,0.4238700039418566,,,0.0,True,6
1000,0,,,0,0.4238700039418566,,,0.0,True,6
