0,105,40.678462590837974,18.995497853879073,1,0.0,40.74249774409648,42.798736503480484,0.4761904308390066,True,3
1,103,40.678462590837974,19.995497853879073,1,0.0,40.74249774409648,43.39731625118618,0.4854368460740926,True,3
2,81,40.34083892956268,21.44640691695068,2,0.0,40.88045008949232,45.005548497429096,0.5185184545038944,True,3
3,79,40.2357047188014,22.066359131762358,2,0.0,41.3337451752812,44.83124765023663,0.51898727607756,True,3
4,78,39.624090012442835,22.051142200004833,2,0.0,42.32185101502436,45.085501509959016,0.5256409582511592,True,3
5,74,40.08297706541364,21.712977236179135,4,0.0,42.1973967227883,45.25514223372424,0.567567490869258,True,3
6,72,39.86814935944142,21.634466150251423,5,0.0,42.61692927383353,45.68339162219933,0.5694443653549492,True,3
7,69,39.996816398874344,21.722682794089376,5,0.0,42.59461154406371,46.18831760658304,0.5797100609115854,True,3
8,70,39.75555381558203,22.168471018623784,5,0.0,42.74463744948014,46.36711788638973,0.5857142020408282,True,3
9,71,39.684045774735154,22.616840756275597,6,0.0,43.13359329075368,46.06623979135998,0.5915492124578574,True,3
10,72,39.71256516382922,23.06761190147849,7,0.0,43.04325508631817,45.81265540773167,0.5972221392747028,True,3
11,69,39.98073581232626,24.644029902513928,6,0.021144548821139288,43.01615326411795,45.81181008297093,0.5797100609115854,True,3
12,66,40.75054283249243,25.46449709564622,7,0.30252239243395423,43.617631227451234,45.54059286748856,0.5757574885215926,True,3
13,67,40.64307487317746,25.785920247039904,8,0.30252239243395423,43.613682067324305,45.59687254788402,0.5820894653597812,True,3
14,68,40.80046677073949,26.378859134412913,8,0.30252239243395423,43.863670047459586,45.59822597277468,0.5735293274221577,True,3
15,70,40.61313777042072,25.218497576415423,9,0.30252239243395423,44.36918667058367,45.66849243924338,0.5857142020408282,True,3
16,66,41.097829635598856,25.710855116088478,7,0.38745074823256986,44.49463265475356,45.66849243924338,0.5606059756657612,True,3
17,64,41.2848180848898,25.76893894000865,8,0.38745074823256986,44.16796574820573,46.104561380934086,0.5781249096679828,True,3
18,68,41.01533243642531,24.761268519508,8,0.38745074823256986,44.38972063047946,45.948341805140316,0.5882352076124694,True,3
19,66,40.10072179418192,23.75555121056923,8,0.38745074823256986,44.31884361921975,46.63896166647634,0.6060605142332554,True,3
20,64,40.398465569375844,24.114258200548466,8,0.3695801033545235,44.48892831553891,46.63896166647634,0.593749907226577,True,3
21,66,40.398465569375844,25.114258200548466,9,0.3695801033545235,44.48892831553891,46.894124347776355,0.5757574885215926,True,3
22,68,40.398465569375844,26.114258200548466,12,0.3695801033545235,44.48892831553891,46.95245469065511,0.558823447231846,True,3
23,67,40.22865147919655,26.095388201384463,12,0.3695801033545235,44.99073025084815,46.94758440267039,0.5671640944531202,True,3
24,65,40.37748184229633,25.63325844666746,11,0.37543825102875045,45.08000285206225,46.34305444323159,0.5846152946745701,True,3
25,65,40.37748184229633,26.63325844666746,12,0.37543825102875045,45.08000285206225,46.34305444323159,0.5846152946745701,True,3
26,63,40.677278845268035,27.437555484708504,11,0.2387687555123878,45.38882107825127,46.15762804773923,0.555555467372148,True,3
27,64,40.52250765140375,26.90039032337291,11,0.2387687555123878,45.35585092220793,46.24214995525582,0.5781249096679828,True,3
28,60,39.832609112112,24.951337819821642,9,0.18751690869222853,46.45569209703074,46.42996632602459,0.5666665722222379,True,3
29,57,39.63605679649884,22.696555682126995,7,0.2630931247117985,46.871240691785125,46.85433984054794,0.5964911234226099,True,3
30,56,39.63605679649884,23.696555682126995,7,0.2630931247117985,46.871240691785125,46.93814206638144,0.6071427487245091,True,3
31,57,39.873072867095686,23.990939805494794,7,0.2630931247117985,46.76767680896952,46.88611235213222,0.6140349799938631,True,3
32,53,39.63605679649884,25.696555682126995,8,0.2630931247117985,46.871240691785125,46.539127217305065,0.6415093129227711,True,3
33,55,39.69306664215661,25.729704576805343,8,0.3427161478024807,47.00783740854376,45.990720655762416,0.5999998909091107,True,3
34,54,39.98421567789581,25.499922330120803,7,0.3079076706857298,46.777203691734414,46.62862993800789,0.57407396776408,True,3
35,55,39.77695348695809,24.893866431325602,7,0.3079076706857298,46.919225203373905,46.364266937173696,0.5999998909091107,True,3
36,58,39.83455210656384,24.92639977158073,7,0.3079076706857298,46.686792403519924,46.34729328789564,0.5862067954815869,True,3
37,55,39.82565370001904,23.484662711238524,5,0.37113828705922247,45.96532377985896,46.34729328789564,0.5636362611570434,True,3
38,55,39.86557968795468,24.300818134946475,5,0.37113828705922247,46.16642799904527,46.38633040703793,0.5454544462810097,True,3
39,52,40.033225982848656,24.387888517690136,5,0.37113828705922247,46.045589332559885,46.69988966740387,0.5961537315088977,True,3
40,53,39.76633008713748,24.64595303381917,6,0.37113828705922247,46.325134930148785,46.541438083456825,0.5849055500178207,True,3
41,52,39.622255475768924,26.000846346496353,7,0.37113828705922247,46.286253079535754,46.64887177166454,0.5576922004438075,True,3
42,48,38.94887149611421,26.963872001792378,9,0.37113828705922247,46.48317694637566,46.757157183880594,0.5624998828125244,True,3
43,49,38.94887149611421,27.963872001792378,9,0.37113828705922247,46.48317694637566,46.722637793351616,0.5510202957101437,True,3
44,48,38.726486169226526,27.889797927718305,9,0.37113828705922247,46.656243284889854,46.7298766903316,0.5624998828125244,True,3
45,49,38.726486169226526,28.889797927718305,9,0.37113828705922247,46.656243284889854,46.59508548856447,0.5510202957101437,True,3
46,48,38.706948201664495,30.34709784801516,11,0.37113828705922247,46.997113776321434,46.59508548856447,0.5416665538194679,True,3
47,48,38.54234203527697,29.27680146214557,10,0.3094838668388893,47.40520949002176,46.59508548856447,0.5416665538194679,True,3
48,48,38.40388885758783,30.23833992368403,10,0.3094838668388893,47.418043343096684,46.59508548856447,0.5416665538194679,True,3
49,48,38.47581077264711,29.90257852458939,9,0.4053725333997368,47.46219760982825,46.472015260864055,0.5208332248264115,True,3
50,45,38.416973371683405,29.162181111545078,8,0.3908282010073246,47.626685347024384,45.862947576722576,0.5111109975308894,True,3
51,42,38.534049200956154,27.636508278276843,6,0.33075628265891915,48.67278696127885,45.850506412287515,0.47619036281181837,True,3
52,38,38.63353371949018,29.248956082396674,7,0.33075628265891915,48.75652083671195,46.15985321081968,0.49999986842108723,True,3
53,36,38.63353371949018,30.248956082396674,7,0.33075628265891915,48.75652083671195,46.41397294688886,0.5277776311728802,True,3
54,38,38.901951097879774,29.68650827827684,7,0.33075628265891915,48.61315465219823,46.42353201451366,0.5263156509695655,True,3
55,40,39.166879583661334,29.22524597931128,8,0.33075628265891915,48.3822649188295,46.62067126611083,0.5249998687500328,True,3
56,38,39.28761275784375,29.386508278276843,7,0.2813937087598518,47.84733902562254,46.592092969649514,0.5263156509695655,True,3
57,38,39.262992070942616,28.73650827827684,7,0.2813937087598518,48.01194820191419,46.592092969649514,0.5263156509695655,True,3
58,39,39.41452315938078,28.320484074549373,7,0.2813937087598518,47.97426452277619,46.94960340887751,0.5384614003945126,True,3
59,39,39.875864907012634,26.796674550739848,6,0.3046456633730001,48.544405370157904,47.05279313796941,0.5384614003945126,True,3
60,39,40.09972595167843,25.653817407882705,5,0.2746787990813232,48.2801302206327,47.05279313796941,0.5384614003945126,True,3
61,35,40.27738795137119,21.333333333333332,3,0.4026575295619009,47.51553573425855,47.11485564065919,0.5142855673469807,True,3
62,36,40.27738795137119,22.333333333333332,3,0.4026575295619009,47.51553573425855,47.083089905657296,0.49999986111114963,True,3
63,38,40.27738795137119,23.333333333333332,4,0.4026575295619009,47.51553573425855,47.084460245137464,0.47368408587260896,True,3
64,38,40.27738795137119,24.333333333333332,5,0.4026575295619009,47.51553573425855,47.084460245137464,0.47368408587260896,True,3
65,36,40.22410405297474,25.875,5,0.4026575295619009,47.59865352887429,47.084460245137464,0.4444443209876886,True,3
66,35,40.22410405297474,26.875,5,0.4026575295619009,47.59865352887429,46.86147460823368,0.4571427265306495,True,3
67,36,40.20314889950526,26.235294117647058,5,0.4026575295619009,47.556390906592355,46.86147460823368,0.4722220910494191,True,3
68,36,40.18452209642127,25.72222222222222,5,0.4026575295619009,47.115714045471584,46.82683463817598,0.49999986111114963,True,3
69,34,40.79786300424037,22.4375,3,0.35307504576754367,47.19231431810337,46.82683463817598,0.4705880968858538,True,3
70,31,41.686239823786885,19.46153846153846,1,0.417444047069329,46.067876016689794,46.82683463817598,0.41935470343396664,True,3
71,32,41.686239823786885,20.46153846153846,1,0.417444047069329,46.067876016689794,46.898635820486426,0.4062498730469146,True,3
72,32,41.686239823786885,21.46153846153846,1,0.417444047069329,46.067876016689794,46.898635820486426,0.4062498730469146,True,3
73,33,41.39404279404857,21.23076923076923,1,0.417444047069329,46.24316335158538,46.708960118725955,0.39393927456385613,True,3
74,35,41.37805427284793,20.642857142857142,1,0.417444047069329,46.38229861947746,46.596542901971375,0.3999998857143183,True,3
75,34,41.37805427284793,21.642857142857142,1,0.417444047069329,46.38229861947746,46.67125639549426,0.41176458477512207,True,3
76,33,41.37805427284793,22.642857142857142,1,0.417444047069329,46.38229861947746,46.600589677287616,0.4242422956841528,True,3
77,34,41.47107834807981,23.0,1,0.417444047069329,46.99421645488146,46.6189013945811,0.41176458477512207,True,3
78,34,41.47107834807981,24.0,1,0.417444047069329,46.99421645488146,46.6189013945811,0.41176458477512207,True,3
79,34,41.4942225673752,26.76923076923077,2,0.417444047069329,46.90215178971277,46.5107726885001,0.38235282871975623,True,3
80,32,41.4942225673752,27.76923076923077,3,0.417444047069329,46.90215178971277,46.35701761385439,0.4062498730469146,True,3
81,30,41.4942225673752,28.76923076923077,3,0.417444047069329,46.90215178971277,46.49604872044961,0.433333188888937,True,3
82,31,41.64368615329967,27.642857142857142,3,0.417444047069329,46.90677123495881,46.628344165954815,0.45161275754427177,True,3
83,30,41.64368615329967,28.642857142857142,3,0.417444047069329,46.90677123495881,46.75612709578396,0.466666511111163,True,3
84,29,41.4942225673752,31.76923076923077,3,0.417444047069329,46.90215178971277,46.75612709578396,0.4482757074911354,True,3
85,29,41.34455738168346,30.428571428571427,5,0.417444047069329,46.99248143562231,46.7220795592359,0.4827584542212227,True,3
86,28,41.12450584880736,26.571428571428573,4,0.3838099162510543,46.724050150103274,46.5478335803147,0.4999998214286352,True,3
87,27,41.12450584880736,27.571428571428573,4,0.3838099162510543,46.724050150103274,46.365292777895256,0.5185183264746939,True,3
88,26,41.12450584880736,28.571428571428573,5,0.3838099162510543,46.724050150103274,46.42648670480938,0.5384613313610264,True,3
89,25,40.903169276616985,29.615384615384617,5,0.3838099162510543,46.7882696119237,46.42648670480938,0.5199997920000832,True,3
90,25,40.903169276616985,30.615384615384617,5,0.3838099162510543,46.7882696119237,46.42648670480938,0.5199997920000832,True,3
91,25,40.903169276616985,31.615384615384617,5,0.3838099162510543,46.7882696119237,46.42648670480938,0.5199997920000832,True,3
92,25,40.903169276616985,32.61538461538461,5,0.3838099162510543,46.7882696119237,46.42648670480938,0.5199997920000832,True,3
93,25,40.903169276616985,33.61538461538461,5,0.3838099162510543,46.7882696119237,46.42648670480938,0.5199997920000832,True,3
94,25,40.903169276616985,34.61538461538461,5,0.3838099162510543,46.7882696119237,46.42648670480938,0.5199997920000832,True,3
95,25,40.903169276616985,35.61538461538461,5,0.3838099162510543,46.7882696119237,46.42648670480938,0.5199997920000832,True,3
96,23,41.130585585147166,35.0,4,0.42777024626911536,46.83337251332182,46.45801730805106,0.5217389035917811,True,3
97,23,41.130585585147166,36.0,4,0.42777024626911536,46.83337251332182,46.45801730805106,0.5217389035917811,True,3
98,23,41.130585585147166,37.0,4,0.42777024626911536,46.83337251332182,46.45801730805106,0.5217389035917811,True,3
99,22,41.28801064127957,40.18181818181818,5,0.42777024626911536,46.71215484794686,46.45801730805106,0.49999977272737606,True,3
100,20,41.28801064127957,41.18181818181818,6,0.42777024626911536,46.71215484794686,46.25883520145824,0.5499997250001375,True,3
101,18,41.3769796030826,40.2,6,0.4221152796989765,47.058569605898434,46.20261553518482,0.5555552469137517,True,3
102,17,41.3769796030826,41.2,6,0.4221152796989765,47.058569605898434,46.09562338393564,0.5882349480970893,True,3
103,17,41.3769796030826,42.2,6,0.4221152796989765,47.058569605898434,46.09562338393564,0.5882349480970893,True,3
104,17,41.3769796030826,43.2,6,0.4221152796989765,47.058569605898434,46.09562338393564,0.5882349480970893,True,3
105,15,41.81197776553469,42.666666666666664,5,0.42077812335376263,46.20870068046558,45.95042327739868,0.5999996000002666,True,3
106,14,41.538239825316275,42.625,4,0.3514996938072652,46.248638622219076,45.95042327739868,0.5714281632655976,True,3
107,14,41.538239825316275,43.625,4,0.3514996938072652,46.248638622219076,45.95042327739868,0.5714281632655976,True,3
108,12,41.68493440964254,41.857142857142854,3,0.356969370026559,46.11639532024644,45.50229651246352,0.5833328472226273,True,3
109,11,41.97600170202396,39.833333333333336,2,0.36243943774156806,45.90073815397792,45.50229651246352,0.5454540495872277,True,3
110,10,41.97600170202396,40.833333333333336,2,0.36243943774156806,45.90073815397792,46.10159019426019,0.5999994000006,True,3
111,10,41.97600170202396,41.833333333333336,2,0.36243943774156806,45.90073815397792,46.10159019426019,0.5999994000006,True,3
112,10,41.97600170202396,42.833333333333336,3,0.36243943774156806,45.90073815397792,46.10159019426019,0.5999994000006,True,3
113,9,41.47811218257026,41.0,2,0.3350319116802,46.327991734482545,46.10159019426019,0.5555549382722909,True,3
114,9,41.47811218257026,42.0,3,0.3350319116802,46.327991734482545,46.10159019426019,0.5555549382722909,True,3
115,8,41.47811218257026,43.0,3,0.3350319116802,46.327991734482545,45.40895532532116,0.6249992187509766,True,3
116,8,41.47811218257026,44.0,4,0.3350319116802,46.327991734482545,45.40895532532116,0.6249992187509766,True,3
117,7,41.47811218257026,45.0,4,0.3350319116802,46.327991734482545,45.93933370454182,0.7142846938790088,True,3
118,7,41.47811218257026,46.0,4,0.3350319116802,46.327991734482545,45.93933370454182,0.7142846938790088,True,3
119,5,41.279214746764325,46.25,3,0.28647360545996226,46.77209567222738,47.18094945589332,0.7999984000032001,True,3
120,5,41.279214746764325,47.25,3,0.28647360545996226,46.77209567222738,47.18094945589332,0.7999984000032001,True,3
121,5,41.279214746764325,48.25,3,0.28647360545996226,46.77209567222738,47.18094945589332,0.7999984000032001,True,3
122,6,41.16511153491661,39.4,3,0.28647360545996226,46.4866516980451,47.18094945589332,0.8333319444467593,True,3
123,6,41.16511153491661,40.4,3,0.28647360545996226,46.4866516980451,47.18094945589332,0.8333319444467593,True,3
124,5,41.1318417533983,42.25,3,0.28647360545996226,47.23111408587171,47.18094945589332,0.7999984000032001,True,3
125,4,40.69407402848311,35.333333333333336,2,0.33639402768737264,47.234621801156855,47.18094945589332,0.7499981250046875,True,3
126,4,40.69407402848311,36.333333333333336,2,0.33639402768737264,47.234621801156855,47.18094945589332,0.7499981250046875,True,3
127,4,40.69407402848311,37.333333333333336,2,0.33639402768737264,47.234621801156855,47.18094945589332,0.7499981250046875,True,3
128,4,40.69407402848311,38.333333333333336,2,0.33639402768737264,47.234621801156855,47.18094945589332,0.7499981250046875,True,3
129,4,40.69407402848311,39.333333333333336,2,0.33639402768737264,47.234621801156855,47.18094945589332,0.7499981250046875,True,3
130,4,40.69407402848311,40.333333333333336,2,0.33639402768737264,47.234621801156855,47.18094945589332,0.7499981250046875,True,3
131,4,40.69407402848311,41.333333333333336,2,0.33639402768737264,47.234621801156855,47.18094945589332,0.7499981250046875,True,3
132,4,40.69407402848311,42.333333333333336,2,0.33639402768737264,47.234621801156855,47.18094945589332,0.7499981250046875,True,3
133,3,40.69407402848311,43.333333333333336,2,0.33639402768737264,47.234621801156855,,0.9999966666777778,True,3
134,3,40.69407402848311,44.333333333333336,2,0.33639402768737264,47.234621801156855,,0.9999966666777778,True,3
135,3,40.69407402848311,45.333333333333336,2,0.33639402768737264,47.234621801156855,,0.9999966666777778,True,3
136,3,40.69407402848311,46.333333333333336,2,0.33639402768737264,47.234621801156855,,0.9999966666777778,True,3
137,2,40.9394510923827,39.0,1,0.33755432084876064,46.76796645169523,,0.9999950000249999,True,3
138,2,40.9394510923827,40.0,1,0.33755432084876064,46.76796645169523,,0.9999950000249999,True,3
139,2,40.9394510923827,41.0,1,0.33755432084876064,46.76796645169523,,0.9999950000249999,True,3
140,2,40.9394510923827,42.0,1,0.33755432084876064,46.76796645169523,,0.9999950000249999,True,3
141,2,40.9394510923827,43.0,1,0.33755432084876064,46.76796645169523,,0.9999950000249999,True,3
142,2,40.9394510923827,44.0,1,0.33755432084876064,46.76796645169523,,0.9999950000249999,True,3
143,2,40.9394510923827,45.0,1,0.33755432084876064,46.76796645169523,,0.9999950000249999,True,3
144,2,40.9394510923827,46.0,1,0.33755432084876064,46.76796645169523,,0.9999950000249999,True,3
145,2,40.9394510923827,47.0,1,0.33755432084876064,46.76796645169523,,0.9999950000249999,True,3
146,1,40.708698687525754,24.0,0,0.3551111566260063,45.34487580131599,,0.9999900000999989,True,3
147,0,,,0,0.3551111566260063,,,0.0,True,3
148,0,,,0,0.3551111566260063,,,0.0,True,3
149,0,,,0,0.3551111566260063,,,0.0,True,3
150,0,,,0,0.3551111566260063,,,0.0,True,3
151,0,,,0,0.3551111566260063,,,0.0,True,3
152,0,,,0,0.3551111566260063,,,0.0,True,3
153,0,,,0,0.3551111566260063,,,0.0,True,3
154,0,,,0,0.3551111566260063,,,0.0,True,3
155,0,,,0,0.3551111566260063,,,0.0,True,3
156,0,,,0,0.3551111566260063,,,0.0,True,3
157,0,,,0,0.3551111566260063,,,0.0,True,3
158,0,,,0,0.3551111566260063,,,0.0,True,3
159,0,,,0,0.3551111566260063,,,0.0,True,3
160,0,,,0,0.3551111566260063,,,0.0,True,3
161,0,,,0,0.3551111566260063,,,0.0,True,3
162,0,,,0,0.3551111566260063,,,0.0,True,3
163,0,,,0,0.3551111566260063,,,0.0,True,3
164,0,,,0,0.3551111566260063,,,0.0,True,3
165,0,,,0,0.3551111566260063,,,0.0,True,3
166,0,,,0,0.3551111566260063,,,0.0,True,3
167,0,,,0,0.3551111566260063,,,0.0,True,3
168,0,,,0,0.3551111566260063,,,0.0,True,3
169,0,,,0,0.3551111566260063,,,0.0,True,3
170,0,,,0,0.3551111566260063,,,0.0,True,3
171,0,,,0,0.3551111566260063,,,0.0,True,3
172,0,,,0,0.3551111566260063,,,0.0,True,3
173,0,,,0,0.3551111566260063,,,0.0,True,3
174,0,,,0,0.3551111566260063,,,0.0,True,3
175,0,,,0,0.3551111566260063,,,0.0,True,3
176,0,,,0,0.3551111566260063,,,0.0,True,3
177,0,,,0,0.3551111566260063,,,0.0,True,3
178,0,,,0,0.3551111566260063,,,0.0,True,3
179,0,,,0,0.3551111566260063,,,0.0,True,3
180,0,,,0,0.3551111566260063,,,0.0,True,3
181,0,,,0,0.3551111566260063,,,0.0,True,3
182,0,,,0,0.3551111566260063,,,0.0,True,3
183,0,,,0,0.3551111566260063,,,0.0,True,3
184,0,,,0,0.3551111566260063,,,0.0,True,3
185,0,,,0,0.3551111566260063,,,0.0,True,3
186,0,,,0,0.3551111566260063,,,0.0,True,3
187,0,,,0,0.3551111566260063,,,0.0,True,3
188,0,,,0,0.3551111566260063,,,0.0,True,3
189,0,,,0,0.3551111566260063,,,0.0,True,3
190,0,,,0,0.3551111566260063,,,0.0,True,3
191,0,,,0,0.3551111566260063,,,0.0,True,3
192,0,,,0,0.3551111566260063,,,0.0,True,3
193,0,,,0,0.3551111566260063,,,0.0,True,3
194,0,,,0,0.3551111566260063,,,0.0,True,3
195,0,,,0,0.3551111566260063,,,0.0,True,3
196,0,,,0,0.3551111566260063,,,0.0,True,3
197,0,,,0,0.3551111566260063,,,0.0,True,3
198,0,,,0,0.3551111566260063,,,0.0,True,3
199,0,,,0,0.3551111566260063,,,0.0,True,3
200,0,,,0,0.3551111566260063,,,0.0,True,3
201,0,,,0,0.3551111566260063,,,0.0,True,3
202,0,,,0,0.3551111566260063,,,0.0,True,3
203,0,,,0,0.3551111566260063,,,0.0,True,3
204,0,,,0,0.3551111566260063,,,0.0,True,3
205,0,,,0,0.3551111566260063,,,0.0,True,3
206,0,,,0,0.3551111566260063,,,0.0,True,3
207,0,,,0,0.3551111566260063,,,0.0,True,3
208,0,,,0,0.3551111566260063,,,0.0,True,3
209,0,,,0,0.3551111566260063,,,0.0,True,3
210,0,,,0,0.3551111566260063,,,0.0,True,3
211,0,,,0,0.3551111566260063,,,0.0,True,3
212,0,,,0,0.3551111566260063,,,0.0,True,3
213,0,,,0,0.3551111566260063,,,0.0,True,3
214,0,,,0,0.3551111566260063,,,0.0,True,3
215,0,,,0,0.3551111566260063,,,0.0,True,3
216,0,,,0,0.3551111566260063,,,0.0,True,3
217,0,,,0,0.3551111566260063,,,0.0,True,3
218,0,,,0,0.3551111566260063,,,0.0,True,3
219,0,,,0,0.3551111566260063,,,0.0,True,3
220,0,,,0,0.3551111566260063,,,0.0,True,3
221,0,,,0,0.3551111566260063,,,0.0,True,3
222,0,,,0,0.3551111566260063,,,0.0,True,3
223,0,,,0,0.3551111566260063,,,0.0,True,3
224,0,,,0,0.3551111566260063,,,0.0,True,3
225,0,,,0,0.3551111566260063,,,0.0,True,3
226,0,,,0,0.3551111566260063,,,0.0,True,3
227,0,,,0,0.3551111566260063,,,0.0,True,3
228,0,,,0,0.3551111566260063,,,0.0,True,3
229,0,,,0,0.3551111566260063,,,0.0,True,3
230,0,,,0,0.3551111566260063,,,0.0,True,3
231,0,,,0,0.3551111566260063,,,0.0,True,3
232,0,,,0,0.3551111566260063,,,0.0,True,3
233,0,,,0,0.3551111566260063,,,0.0,True,3
234,0,,,0,0.3551111566260063,,,0.0,True,3
235,0,,,0,0.3551111566260063,,,0.0,True,3
236,0,,,0,0.3551111566260063,,,0.0,True,3
237,0,,,0,0.3551111566260063,,,0.0,True,3
238,0,,,0,0.3551111566260063,,,0.0,True,3
239,0,,,0,0.3551111566260063,,,0.0,True,3
240,0,,,0,0.3551111566260063,,,0.0,True,3
241,0,,,0,0.3551111566260063,,,0.0,True,3
242,0,,,0,0.3551111566260063,,,0.0,True,3
243,0,,,0,0.3551111566260063,,,0.0,True,3
244,0,,,0,0.3551111566260063,,,0.0,True,3
245,0,,,0,0.3551111566260063,,,0.0,True,3
246,0,,,0,0.3551111566260063,,,0.0,True,3
247,0,,,0,0.3551111566260063,,,0.0,True,3
248,0,,,0,0.3551111566260063,,,0.0,True,3
249,0,,,0,0.3551111566260063,,,0.0,True,3
250,0,,,0,0.3551111566260063,,,0.0,True,3
251,0,,,0,0.3551111566260063,,,0.0,True,3
252,0,,,0,0.3551111566260063,,,0.0,True,3
253,0,,,0,0.3551111566260063,,,0.0,True,3
254,0,,,0,0.3551111566260063,,,0.0,True,3
255,0,,,0,0.3551111566260063,,,0.0,True,3
256,0,,,0,0.3551111566260063,,,0.0,True,3
257,0,,,0,0.3551111566260063,,,0.0,True,3
258,0,,,0,0.3551111566260063,,,0.0,True,3
259,0,,,0,0.3551111566260063,,,0.0,True,3
260,0,,,0,0.3551111566260063,,,0.0,True,3
261,0,,,0,0.3551111566260063,,,0.0,True,3
262,0,,,0,0.3551111566260063,,,0.0,True,3
263,0,,,0,0.3551111566260063,,,0.0,True,3
264,0,,,0,0.3551111566260063,,,0.0,True,3
265,0,,,0,0.3551111566260063,,,0.0,True,3
266,0,,,0,0.3551111566260063,,,0.0,True,3
267,0,,,0,0.3551111566260063,,,0.0,True,3
268,0,,,0,0.3551111566260063,,,0.0,True,3
269,0,,,0,0.3551111566260063,,,0.0,True,3
270,0,,,0,0.3551111566260063,,,0.0,True,3
271,0,,,0,0.3551111566260063,,,0.0,True,3
272,0,,,0,0.3551111566260063,,,0.0,True,3
273,0,,,0,0.3551111566260063,,,0.0,True,3
274,0,,,0,0.3551111566260063,,,0.0,True,3
275,0,,,0,0.3551111566260063,,,0.0,True,3
276,0,,,0,0.3551111566260063,,,0.0,True,3
277,0,,,0,0.3551111566260063,,,0.0,True,3
278,0,,,0,0.3551111566260063,,,0.0,True,3
279,0,,,0,0.3551111566260063,,,0.0,True,3
280,0,,,0,0.3551111566260063,,,0.0,True,3
281,0,,,0,0.3551111566260063,,,0.0,True,3
282,0,,,0,0.3551111566260063,,,0.0,True,3
283,0,,,0,0.3551111566260063,,,0.0,True,3
284,0,,,0,0.3551111566260063,,,0.0,True,3
285,0,,,0,0.3551111566260063,,,0.0,True,3
286,0,,,0,0.3551111566260063,,,0.0,True,3
287,0,,,0,0.3551111566260063,,,0.0,True,3
288,0,,,0,0.3551111566260063,,,0.0,True,3
289,0,,,0,0.3551111566260063,,,0.0,True,3
290,0,,,0,0.3551111566260063,,,0.0,True,3
291,0,,,0,0.3551111566260063,,,0.0,True,3
292,0,,,0,0.3551111566260063,,,0.0,True,3
293,0,,,0,0.3551111566260063,,,0.0,True,3
294,0,,,0,0.3551111566260063,,,0.0,True,3
295,0,,,0,0.3551111566260063,,,0.0,True,3
296,0,,,0,0.3551111566260063,,,0.0,True,3
297,0,,,0,0.3551111566260063,,,0.0,True,3
298,0,,,0,0.3551111566260063,,,0.0,True,3
299,0,,,0,0.3551111566260063,,,0.0,True,3
300,0,,,0,0.3551111566260063,,,0.0,True,3
301,0,,,0,0.3551111566260063,,,0.0,True,3
302,0,,,0,0.3551111566260063,,,0.0,True,3
303,0,,,0,0.3551111566260063,,,0.0,True,3
304,0,,,0,0.3551111566260063,,,0.0,True,3
305,0,,,0,0.3551111566260063,,,0.0,True,3
306,0,,,0,0.3551111566260063,,,0.0,True,3
307,0,,,0,0.3551111566260063,,,0.0,True,3
308,0,,,0,0.3551111566260063,,,0.0,True,3
309,0,,,0,0.3551111566260063,,,0.0,True,3
310,0,,,0,0.3551111566260063,,,0.0,True,3
311,0,,,0,0.3551111566260063,,,0.0,True,3
312,0,,,0,0.3551111566260063,,,0.0,True,3
313,0,,,0,0.3551111566260063,,,0.0,True,3
314,0,,,0,0.3551111566260063,,,0.0,True,3
315,0,,,0,0.3551111566260063,,,0.0,True,3
316,0,,,0,0.3551111566260063,,,0.0,True,3
317,0,,,0,0.3551111566260063,,,0.0,True,3
318,0,,,0,0.3551111566260063,,,0.0,True,3
319,0,,,0,0.3551111566260063,,,0.0,True,3
320,0,,,0,0.3551111566260063,,,0.0,True,3
321,0,,,0,0.3551111566260063,,,0.0,True,3
322,0,,,0,0.3551111566260063,,,0.0,True,3
323,0,,,0,0.3551111566260063,,,0.0,True,3
324,0,,,0,0.3551111566260063,,,0.0,True,3
325,0,,,0,0.3551111566260063,,,0.0,True,3
326,0,,,0,0.3551111566260063,,,0.0,True,3
327,0,,,0,0.3551111566260063,,,0.0,True,3
328,0,,,0,0.3551111566260063,,,0.0,True,3
329,0,,,0,0.3551111566260063,,,0.0,True,3
330,0,,,0,0.3551111566260063,,,0.0,True,3
331,0,,,0,0.3551111566260063,,,0.0,True,3
332,0,,,0,0.3551111566260063,,,0.0,True,3
333,0,,,0,0.3551111566260063,,,0.0,True,3
334,0,,,0,0.3551111566260063,,,0.0,True,3
335,0,,,0,0.3551111566260063,,,0.0,True,3
336,0,,,0,0.3551111566260063,,,0.0,True,3
337,0,,,0,0.3551111566260063,,,0.0,True,3
338,0,,,0,0.3551111566260063,,,0.0,True,3
339,0,,,0,0.3551111566260063,,,0.0,True,3
340,0,,,0,0.3551111566260063,,,0.0,True,3
341,0,,,0,0.3551111566260063,,,0.0,True,3
342,0,,,0,0.3551111566260063,,,0.0,True,3
343,0,,,0,0.3551111566260063,,,0.0,True,3
344,0,,,0,0.3551111566260063,,,0.0,True,3
345,0,,,0,0.3551111566260063,,,0.0,True,3
346,0,,,0,0.3551111566260063,,,0.0,True,3
347,0,,,0,0.3551111566260063,,,0.0,True,3
348,0,,,0,0.3551111566260063,,,0.0,True,3
349,0,,,0,0.3551111566260063,,,0.0,True,3
350,0,,,0,0.3551111566260063,,,0.0,True,3
351,0,,,0,0.3551111566260063,,,0.0,True,3
352,0,,,0,0.3551111566260063,,,0.0,True,3
353,0,,,0,0.3551111566260063,,,0.0,True,3
354,0,,,0,0.3551111566260063,,,0.0,True,3
355,0,,,0,0.3551111566260063,,,0.0,True,3
356,0,,,0,0.3551111566260063,,,0.0,True,3
357,0,,,0,0.3551111566260063,,,0.0,True,3
358,0,,,0,0.3551111566260063,,,0.0,True,3
359,0,,,0,0.3551111566260063,,,0.0,True,3
360,0,,,0,0.3551111566260063,,,0.0,True,3
361,0,,,0,0.3551111566260063,,,0.0,True,3
362,0,,,0,0.3551111566260063,,,0.0,True,3
363,0,,,0,0.3551111566260063,,,0.0,True,3
364,0,,,0,0.3551111566260063,,,0.0,True,3
365,0,,,0,0.3551111566260063,,,0.0,True,3
366,0,,,0,0.3551111566260063,,,0.0,True,3
367,0,,,0,0.3551111566260063,,,0.0,True,3
368,0,,,0,0.3551111566260063,,,0.0,True,3
369,0,,,0,0.3551111566260063,,,0.0,True,3
370,0,,,0,0.3551111566260063,,,0.0,True,3
371,0,,,0,0.3551111566260063,,,0.0,True,3
372,0,,,0,0.3551111566260063,,,0.0,True,3
373,0,,,0,0.3551111566260063,,,0.0,True,3
374,0,,,0,0.3551111566260063,,,0.0,True,3
375,0,,,0,0.3551111566260063,,,0.0,True,3
376,0,,,0,0.3551111566260063,,,0.0,True,3
377,0,,,0,0.3551111566260063,,,0.0,True,3
378,0,,,0,0.3551111566260063,,,0.0,True,3
379,0,,,0,0.3551111566260063,,,0.0,True,3
380,0,,,0,0.3551111566260063,,,0.0,True,3
381,0,,,0,0.3551111566260063,,,0.0,True,3
382,0,,,0,0.3551111566260063,,,0.0,True,3
383,0,,,0,0.3551111566260063,,,0.0,True,3
384,0,,,0,0.3551111566260063,,,0.0,True,3
385,0,,,0,0.3551111566260063,,,0.0,True,3
386,0,,,0,0.3551111566260063,,,0.0,True,3
387,0,,,0,0.3551111566260063,,,0.0,True,3
388,0,,,0,0.3551111566260063,,,0.0,True,3
389,0,,,0,0.3551111566260063,,,0.0,True,3
390,0,,,0,0.3551111566260063,,,0.0,True,3
391,0,,,0,0.3551111566260063,,,0.0,True,3
392,0,,,0,0.3551111566260063,,,0.0,True,3
393,0,,,0,0.3551111566260063,,,0.0,True,3
394,0,,,0,0.3551111566260063,,,0.0,True,3
395,0,,,0,0.3551111566260063,,,0.0,True,3
396,0,,,0,0.3551111566260063,,,0.0,True,3
397,0,,,0,0.3551111566260063,,,0.0,True,3
398,0,,,0,0.3551111566260063,,,0.0,True,3
399,0,,,0,0.3551111566260063,,,0.0,True,3
400,0,,,0,0.3551111566260063,,,0.0,True,3
401,0,,,0,0.3551111566260063,,,0.0,True,3
402,0,,,0,0.3551111566260063,,,0.0,True,3
403,0,,,0,0.3551111566260063,,,0.0,True,3
404,0,,,0,0.3551111566260063,,,0.0,True,3
405,0,,,0,0.3551111566260063,,,0.0,True,3
406,0,,,0,0.3551111566260063,,,0.0,True,3
407,0,,,0,0.3551111566260063,,,0.0,True,3
408,0,,,0,0.3551111566260063,,,0.0,True,3
409,0,,,0,0.3551111566260063,,,0.0,True,3
410,0,,,0,0.3551111566260063,,,0.0,True,3
411,0,,,0,0.3551111566260063,,,0.0,True,3
412,0,,,0,0.3551111566260063,,,0.0,True,3
413,0,,,0,0.3551111566260063,,,0.0,True,3
414,0,,,0,0.3551111566260063,,,0.0,True,3
415,0,,,0,0.3551111566260063,,,0.0,True,3
416,0,,,0,0.3551111566260063,,,0.0,True,3
417,0,,,0,0.3551111566260063,,,0.0,True,3
418,0,,,0,0.3551111566260063,,,0.0,True,3
419,0,,,0,0.3551111566260063,,,0.0,True,3
420,0,,,0,0.3551111566260063,,,0.0,True,3
421,0,,,0,0.3551111566260063,,,0.0,True,3
422,0,,,0,0.3551111566260063,,,0.0,True,3
423,0,,,0,0.3551111566260063,,,0.0,True,3
424,0,,,0,0.3551111566260063,,,0.0,True,3
425,0,,,0,0.3551111566260063,,,0.0,True,3
426,0,,,0,0.3551111566260063,,,0.0,True,3
427,0,,,0,0.3551111566260063,,,0.0,True,3
428,0,,,0,0.3551111566260063,,,0.0,True,3
429,0,,,0,0.3551111566260063,,,0.0,True,3
430,0,,,0,0.3551111566260063,,,0.0,True,3
431,0,,,0,0.3551111566260063,,,0.0,True,3
432,0,,,0,0.3551111566260063,,,0.0,True,3
433,0,,,0,0.3551111566260063,,,0.0,True,3
434,0,,,0,0.3551111566260063,,,0.0,True,3
435,0,,,0,0.3551111566260063,,,0.0,True,3
436,0,,,0,0.3551111566260063,,,0.0,True,3
437,0,,,0,0.3551111566260063,,,0.0,True,3
438,0,,,0,0.3551111566260063,,,0.0,True,3
439,0,,,0,0.3551111566260063,,,0.0,True,3
440,0,,,0,0.3551111566260063,,,0.0,True,3
441,0,,,0,0.3551111566260063,,,0.0,True,3
442,0,,,0,0.3551111566260063,,,0.0,True,3
443,0,,,0,0.3551111566260063,,,0.0,True,3
444,0,,,0,0.3551111566260063,,,0.0,True,3
445,0,,,0,0.3551111566260063,,,0.0,True,3
446,0,,,0,0.3551111566260063,,,0.0,True,3
447,0,,,0,0.3551111566260063,,,0.0,True,3
448,0,,,0,0.3551111566260063,,,0.0,True,3
449,0,,,0,0.3551111566260063,,,0.0,True,3
450,0,,,0,0.3551111566260063,,,0.0,True,3
451,0,,,0,0.3551111566260063,,,0.0,True,3
452,0,,,0,0.3551111566260063,,,0.0,True,3
453,0,,,0,0.3551111566260063,,,0.0,True,3
454,0,,,0,0.3551111566260063,,,0.0,True,3
455,0,,,0,0.3551111566260063,,,0.0,True,3
456,0,,,0,0.3551111566260063,,,0.0,True,3
457,0,,,0,0.3551111566260063,,,0.0,True,3
458,0,,,0,0.3551111566260063,,,0.0,True,3
459,0,,,0,0.3551111566260063,,,0.0,True,3
460,0,,,0,0.3551111566260063,,,0.0,True,3
461,0,,,0,0.3551111566260063,,,0.0,True,3
462,0,,,0,0.3551111566260063,,,0.0,True,3
463,0,,,0,0.3551111566260063,,,0.0,True,3
464,0,,,0,0.3551111566260063,,,0.0,True,3
465,0,,,0,0.3551111566260063,,,0.0,True,3
466,0,,,0,0.3551111566260063,,,0.0,True,3
467,0,,,0,0.3551111566260063,,,0.0,True,3
468,0,,,0,0.3551111566260063,,,0.0,True,3
469,0,,,0,0.3551111566260063,,,0.0,True,3
470,0,,,0,0.3551111566260063,,,0.0,True,3
471,0,,,0,0.3551111566260063,,,0.0,True,3
472,0,,,0,0.3551111566260063,,,0.0,True,3
473,0,,,0,0.3551111566260063,,,0.0,True,3
474,0,,,0,0.3551111566260063,,,0.0,True,3
475,0,,,0,0.3551111566260063,,,0.0,True,3
476,0,,,0,0.3551111566260063,,,0.0,True,3
477,0,,,0,0.3551111566260063,,,0.0,True,3
478,0,,,0,0.3551111566260063,,,0.0,True,3
479,0,,,0,0.3551111566260063,,,0.0,True,3
480,0,,,0,0.3551111566260063,,,0.0,True,3
481,0,,,0,0.3551111566260063,,,0.0,True,3
482,0,,,0,0.3551111566260063,,,0.0,True,3
483,0,,,0,0.3551111566260063,,,0.0,True,3
484,0,,,0,0.3551111566260063,,,0.0,True,3
485,0,,,0,0.3551111566260063,,,0.0,True,3
486,0,,,0,0.3551111566260063,,,0.0,True,3
487,0,,,0,0.3551111566260063,,,0.0,True,3
488,0,,,0,0.3551111566260063,,,0.0,True,3
489,0,,,0,0.3551111566260063,,,0.0,True,3
490,0,,,0,0.3551111566260063,,,0.0,True,3
491,0,,,0,0.3551111566260063,,,0.0,True,3
492,0,,,0,0.3551111566260063,,,0.0,True,3
493,0,,,0,0.3551111566260063,,,0.0,True,3
494,0,,,0,0.3551111566260063,,,0.0,True,3
495,0,,,0,0.3551111566260063,,,0.0,True,3
496,0,,,0,0.3551111566260063,,,0.0,True,3
497,0,,,0,0.3551111566260063,,,0.0,True,3
498,0,,,0,0.3551111566260063,,,0.0,True,3
499,0,,,0,0.3551111566260063,,,0.0,True,3
500,0,,,0,0.3551111566260063,,,0.0,True,3
501,0,,,0,0.3551111566260063,,,0.0,True,3
502,0,,,0,0.3551111566260063,,,0.0,True,3
503,0,,,0,0.3551111566260063,,,0.0,True,3
504,0,,,0,0.3551111566260063,,,0.0,True,3
505,0,,,0,0.3551111566260063,,,0.0,True,3
506,0,,,0,0.3551111566260063,,,0.0,True,3
507,0,,,0,0.3551111566260063,,,0.0,True,3
508,0,,,0,0.3551111566260063,,,0.0,True,3
509,0,,,0,0.3551111566260063,,,0.0,True,3
510,0,,,0,0.3551111566260063,,,0.0,True,3
511,0,,,0,0.3551111566260063,,,0.0,True,3
512,0,,,0,0.3551111566260063,,,0.0,True,3
513,0,,,0,0.3551111566260063,,,0.0,True,3
514,0,,,0,0.3551111566260063,,,0.0,True,3
515,0,,,0,0.3551111566260063,,,0.0,True,3
516,0,,,0,0.3551111566260063,,,0.0,True,3
517,0,,,0,0.3551111566260063,,,0.0,True,3
518,0,,,0,0.3551111566260063,,,0.0,True,3
519,0,,,0,0.3551111566260063,,,0.0,True,3
520,0,,,0,0.3551111566260063,,,0.0,True,3
521,0,,,0,0.3551111566260063,,,0.0,True,3
522,0,,,0,0.3551111566260063,,,0.0,True,3
523,0,,,0,0.3551111566260063,,,0.0,True,3
524,0,,,0,0.3551111566260063,,,0.0,True,3
525,0,,,0,0.3551111566260063,,,0.0,True,3
526,0,,,0,0.3551111566260063,,,0.0,True,3
527,0,,,0,0.3551111566260063,,,0.0,True,3
528,0,,,0,0.3551111566260063,,,0.0,True,3
529,0,,,0,0.3551111566260063,,,0.0,True,3
530,0,,,0,0.3551111566260063,,,0.0,True,3
531,0,,,0,0.3551111566260063,,,0.0,True,3
532,0,,,0,0.3551111566260063,,,0.0,True,3
533,0,,,0,0.3551111566260063,,,0.0,True,3
534,0,,,0,0.3551111566260063,,,0.0,True,3
535,0,,,0,0.3551111566260063,,,0.0,True,3
536,0,,,0,0.3551111566260063,,,0.0,True,3
537,0,,,0,0.3551111566260063,,,0.0,True,3
538,0,,,0,0.3551111566260063,,,0.0,True,3
539,0,,,0,0.3551111566260063,,,0.0,True,3
540,0,,,0,0.3551111566260063,,,0.0,True,3
541,0,,,0,0.3551111566260063,,,0.0,True,3
542,0,,,0,0.3551111566260063,,,0.0,True,3
543,0,,,0,0.3551111566260063,,,0.0,True,3
544,0,,,0,0.3551111566260063,,,0.0,True,3
545,0,,,0,0.3551111566260063,,,0.0,True,3
546,0,,,0,0.3551111566260063,,,0.0,True,3
547,0,,,0,0.3551111566260063,,,0.0,True,3
548,0,,,0,0.3551111566260063,,,0.0,True,3
549,0,,,0,0.3551111566260063,,,0.0,True,3
550,0,,,0,0.3551111566260063,,,0.0,True,3
551,0,,,0,0.3551111566260063,,,0.0,True,3
552,0,,,0,0.3551111566260063,,,0.0,True,3
553,0,,,0,0.3551111566260063,,,0.0,True,3
554,0,,,0,0.3551111566260063,,,0.0,True,3
555,0,,,0,0.3551111566260063,,,0.0,True,3
556,0,,,0,0.3551111566260063,,,0.0,True,3
557,0,,,0,0.3551111566260063,,,0.0,True,3
558,0,,,0,0.3551111566260063,,,0.0,True,3
559,0,,,0,0.3551111566260063,,,0.0,True,3
560,0,,,0,0.3551111566260063,,,0.0,True,3
561,0,,,0,0.3551111566260063,,,0.0,True,3
562,0,,,0,0.3551111566260063,,,0.0,True,3
563,0,,,0,0.3551111566260063,,,0.0,True,3
564,0,,,0,0.3551111566260063,,,0.0,True,3
565,0,,,0,0.3551111566260063,,,0.0,True,3
566,0,,,0,0.3551111566260063,,,0.0,True,3
567,0,,,0,0.3551111566260063,,,0.0,True,3
568,0,,,0,0.3551111566260063,,,0.0,True,3
569,0,,,0,0.3551111566260063,,,0.0,True,3
570,0,,,0,0.3551111566260063,,,0.0,True,3
571,0,,,0,0.3551111566260063,,,0.0,True,3
572,0,,,0,0.3551111566260063,,,0.0,True,3
573,0,,,0,0.3551111566260063,,,0.0,True,3
574,0,,,0,0.3551111566260063,,,0.0,True,3
575,0,,,0,0.3551111566260063,,,0.0,True,3
576,0,,,0,0.3551111566260063,,,0.0,True,3
577,0,,,0,0.3551111566260063,,,0.0,True,3
578,0,,,0,0.3551111566260063,,,0.0,True,3
579,0,,,0,0.3551111566260063,,,0.0,True,3
580,0,,,0,0.3551111566260063,,,0.0,True,3
581,0,,,0,0.3551111566260063,,,0.0,True,3
582,0,,,0,0.3551111566260063,,,0.0,True,3
583,0,,,0,0.3551111566260063,,,0.0,True,3
584,0,,,0,0.3551111566260063,,,0.0,True,3
585,0,,,0,0.3551111566260063,,,0.0,True,3
586,0,,,0,0.3551111566260063,,,0.0,True,3
587,0,,,0,0.3551111566260063,,,0.0,True,3
588,0,,,0,0.3551111566260063,,,0.0,True,3
589,0,,,0,0.3551111566260063,,,0.0,True,3
590,0,,,0,0.3551111566260063,,,0.0,True,3
591,0,,,0,0.3551111566260063,,,0.0,True,3
592,0,,,0,0.3551111566260063,,,0.0,True,3
593,0,,,0,0.3551111566260063,,,0.0,True,3
594,0,,,0,0.3551111566260063,,,0.0,True,3
595,0,,,0,0.3551111566260063,,,0.0,True,3
596,0,,,0,0.3551111566260063,,,0.0,True,3
597,0,,,0,0.3551111566260063,,,0.0,True,3
598,0,,,0,0.3551111566260063,,,0.0,True,3
599,0,,,0,0.3551111566260063,,,0.0,True,3
600,0,,,0,0.3551111566260063,,,0.0,True,3
601,0,,,0,0.3551111566260063,,,0.0,True,3
602,0,,,0,0.3551111566260063,,,0.0,True,3
603,0,,,0,0.3551111566260063,,,0.0,True,3
604,0,,,0,0.3551111566260063,,,0.0,True,3
605,0,,,0,0.3551111566260063,,,0.0,True,3
606,0,,,0,0.3551111566260063,,,0.0,True,3
607,0,,,0,0.3551111566260063,,,0.0,True,3
608,0,,,0,0.3551111566260063,,,0.0,True,3
609,0,,,0,0.3551111566260063,,,0.0,True,3
610,0,,,0,0.3551111566260063,,,0.0,True,3
611,0,,,0,0.3551111566260063,,,0.0,True,3
612,0,,,0,0.3551111566260063,,,0.0,True,3
613,0,,,0,0.3551111566260063,,,0.0,True,3
614,0,,,0,0.3551111566260063,,,0.0,True,3
615,0,,,0,0.3551111566260063,,,0.0,True,3
616,0,,,0,0.3551111566260063,,,0.0,True,3
617,0,,,0,0.3551111566260063,,,0.0,True,3
618,0,,,0,0.3551111566260063,,,0.0,True,3
619,0,,,0,0.3551111566260063,,,0.0,True,3
620,0,,,0,0.3551111566260063,,,0.0,True,3
621,0,,,0,0.3551111566260063,,,0.0,True,3
622,0,,,0,0.3551111566260063,,,0.0,True,3
623,0,,,0,0.3551111566260063,,,0.0,True,3
624,0,,,0,0.3551111566260063,,,0.0,True,3
625,0,,,0,0.3551111566260063,,,0.0,True,3
626,0,,,0,0.3551111566260063,,,0.0,True,3
627,0,,,0,0.3551111566260063,,,0.0,True,3
628,0,,,0,0.3551111566260063,,,0.0,True,3
629,0,,,0,0.3551111566260063,,,0.0,True,3
630,0,,,0,0.3551111566260063,,,0.0,True,3
631,0,,,0,0.3551111566260063,,,0.0,True,3
632,0,,,0,0.3551111566260063,,,0.0,True,3
633,0,,,0,0.3551111566260063,,,0.0,True,3
634,0,,,0,0.3551111566260063,,,0.0,True,3
635,0,,,0,0.3551111566260063,,,0.0,True,3
636,0,,,0,0.3551111566260063,,,0.0,True,3
637,0,,,0,0.3551111566260063,,,0.0,True,3
638,0,,,0,0.3551111566260063,,,0.0,True,3
639,0,,,0,0.3551111566260063,,,0.0,True,3
640,0,,,0,0.3551111566260063,,,0.0,True,3
641,0,,,0,0.3551111566260063,,,0.0,True,3
642,0,,,0,0.3551111566260063,,,0.0,True,3
643,0,,,0,0.3551111566260063,,,0.0,True,3
644,0,,,0,0.3551111566260063,,,0.0,True,3
645,0,,,0,0.3551111566260063,,,0.0,True,3
646,0,,,0,0.3551111566260063,,,0.0,True,3
647,0,,,0,0.3551111566260063,,,0.0,True,3
648,0,,,0,0.3551111566260063,,,0.0,True,3
649,0,,,0,0.3551111566260063,,,0.0,True,3
650,0,,,0,0.3551111566260063,,,0.0,True,3
651,0,,,0,0.3551111566260063,,,0.0,True,3
652,0,,,0,0.3551111566260063,,,0.0,True,3
653,0,,,0,0.3551111566260063,,,0.0,True,3
654,0,,,0,0.3551111566260063,,,0.0,True,3
655,0,,,0,0.3551111566260063,,,0.0,True,3
656,0,,,0,0.3551111566260063,,,0.0,True,3
657,0,,,0,0.3551111566260063,,,0.0,True,3
658,0,,,0,0.3551111566260063,,,0.0,True,3
659,0,,,0,0.3551111566260063,,,0.0,True,3
660,0,,,0,0.3551111566260063,,,0.0,True,3
661,0,,,0,0.3551111566260063,,,0.0,True,3
662,0,,,0,0.3551111566260063,,,0.0,True,3
663,0,,,0,0.3551111566260063,,,0.0,True,3
664,0,,,0,0.3551111566260063,,,0.0,True,3
665,0,,,0,0.3551111566260063,,,0.0,True,3
666,0,,,0,0.3551111566260063,,,0.0,True,3
667,0,,,0,0.3551111566260063,,,0.0,True,3
668,0,,,0,0.3551111566260063,,,0.0,True,3
669,0,,,0,0.3551111566260063,,,0.0,True,3
670,0,,,0,0.3551111566260063,,,0.0,True,3
671,0,,,0,0.3551111566260063,,,0.0,True,3
672,0,,,0,0.3551111566260063,,,0.0,True,3
673,0,,,0,0.3551111566260063,,,0.0,True,3
674,0,,,0,0.3551111566260063,,,0.0,True,3
675,0,,,0,0.3551111566260063,,,0.0,True,3
676,0,,,0,0.3551111566260063,,,0.0,True,3
677,0,,,0,0.3551111566260063,,,0.0,True,3
678,0,,,0,0.3551111566260063,,,0.0,True,3
679,0,,,0,0.3551111566260063,,,0.0,True,3
680,0,,,0,0.3551111566260063,,,0.0,True,3
681,0,,,0,0.3551111566260063,,,0.0,True,3
682,0,,,0,0.3551111566260063,,,0.0,True,3
683,0,,,0,0.3551111566260063,,,0.0,True,3
684,0,,,0,0.3551111566260063,,,0.0,True,3
685,0,,,0,0.3551111566260063,,,0.0,True,3
686,0,,,0,0.3551111566260063,,,0.0,True,3
687,0,,,0,0.3551111566260063,,,0.0,True,3
688,0,,,0,0.3551111566260063,,,0.0,True,3
689,0,,,0,0.3551111566260063,,,0.0,True,3
690,0,,,0,0.3551111566260063,,,0.0,True,3
691,0,,,0,0.3551111566260063,,,0.0,True,3
692,0,,,0,0.3551111566260063,,,0.0,True,3
693,0,,,0,0.3551111566260063,,,0.0,True,3
694,0,,,0,0.3551111566260063,,,0.0,True,3
695,0,,,0,0.3551111566260063,,,0.0,True,3
696,0,,,0,0.3551111566260063,,,0.0,True,3
697,0,,,0,0.3551111566260063,,,0.0,True,3
698,0,,,0,0.3551111566260063,,,0.0,True,3
699,0,,,0,0.3551111566260063,,,0.0,True,3
700,0,,,0,0.3551111566260063,,,0.0,True,3
701,0,,,0,0.3551111566260063,,,0.0,True,3
702,0,,,0,0.3551111566260063,,,0.0,True,3
703,0,,,0,0.3551111566260063,,,0.0,True,3
704,0,,,0,0.3551111566260063,,,0.0,True,3
705,0,,,0,0.3551111566260063,,,0.0,True,3
706,0,,,0,0.3551111566260063,,,0.0,True,3
707,0,,,0,0.3551111566260063,,,0.0,True,3
708,0,,,0,0.3551111566260063,,,0.0,True,3
709,0,,,0,0.3551111566260063,,,0.0,True,3
710,0,,,0,0.3551111566260063,,,0.0,True,3
711,0,,,0,0.3551111566260063,,,0.0,True,3
712,0,,,0,0.3551111566260063,,,0.0,True,3
713,0,,,0,0.3551111566260063,,,0.0,True,3
714,0,,,0,0.3551111566260063,,,0.0,True,3
715,0,,,0,0.3551111566260063,,,0.0,True,3
716,0,,,0,0.3551111566260063,,,0.0,True,3
717,0,,,0,0.3551111566260063,,,0.0,True,3
718,0,,,0,0.3551111566260063,,,0.0,True,3
719,0,,,0,0.3551111566260063,,,0.0,True,3
720,0,,,0,0.3551111566260063,,,0.0,True,3
721,0,,,0,0.3551111566260063,,,0.0,True,3
722,0,,,0,0.3551111566260063,,,0.0,True,3
723,0,,,0,0.3551111566260063,,,0.0,True,3
724,0,,,0,0.3551111566260063,,,0.0,True,3
725,0,,,0,0.3551111566260063,,,0.0,True,3
726,0,,,0,0.3551111566260063,,,0.0,True,3
727,0,,,0,0.3551111566260063,,,0.0,True,3
728,0,,,0,0.3551111566260063,,,0.0,True,3
729,0,,,0,0.3551111566260063,,,0.0,True,3
730,0,,,0,0.3551111566260063,,,0.0,True,3
731,0,,,0,0.3551111566260063,,,0.0,True,3
732,0,,,0,0.3551111566260063,,,0.0,True,3
733,0,,,0,0.3551111566260063,,,0.0,True,3
734,0,,,0,0.3551111566260063,,,0.0,True,3
735,0,,,0,0.3551111566260063,,,0.0,True,3
736,0,,,0,0.3551111566260063,,,0.0,True,3
737,0,,,0,0.3551111566260063,,,0.0,True,3
738,0,,,0,0.3551111566260063,,,0.0,True,3
739,0,,,0,0.3551111566260063,,,0.0,True,3
740,0,,,0,0.3551111566260063,,,0.0,True,3
741,0,,,0,0.3551111566260063,,,0.0,True,3
742,0,,,0,0.3551111566260063,,,0.0,True,3
743,0,,,0,0.3551111566260063,,,0.0,True,3
744,0,,,0,0.3551111566260063,,,0.0,True,3
745,0,,,0,0.3551111566260063,,,0.0,True,3
746,0,,,0,0.3551111566260063,,,0.0,True,3
747,0,,,0,0.3551111566260063,,,0.0,True,3
748,0,,,0,0.3551111566260063,,,0.0,True,3
749,0,,,0,0.3551111566260063,,,0.0,True,3
750,0,,,0,0.3551111566260063,,,0.0,True,3
751,0,,,0,0.3551111566260063,,,0.0,True,3
752,0,,,0,0.3551111566260063,,,0.0,True,3
753,0,,,0,0.3551111566260063,,,0.0,True,3
754,0,,,0,0.3551111566260063,,,0.0,True,3
755,0,,,0,0.3551111566260063,,,0.0,True,3
756,0,,,0,0.3551111566260063,,,0.0,True,3
757,0,,,0,0.3551111566260063,,,0.0,True,3
758,0,,,0,0.3551111566260063,,,0.0,True,3
759,0,,,0,0.3551111566260063,,,0.0,True,3
760,0,,,0,0.3551111566260063,,,0.0,True,3
761,0,,,0,0.3551111566260063,,,0.0,True,3
762,0,,,0,0.3551111566260063,,,0.0,True,3
763,0,,,0,0.3551111566260063,,,0.0,True,3
764,0,,,0,0.3551111566260063,,,0.0,True,3
765,0,,,0,0.3551111566260063,,,0.0,True,3
766,0,,,0,0.3551111566260063,,,0.0,True,3
767,0,,,0,0.3551111566260063,,,0.0,True,3
768,0,,,0,0.3551111566260063,,,0.0,True,3
769,0,,,0,0.3551111566260063,,,0.0,True,3
770,0,,,0,0.3551111566260063,,,0.0,True,3
771,0,,,0,0.3551111566260063,,,0.0,True,3
772,0,,,0,0.3551111566260063,,,0.0,True,3
773,0,,,0,0.3551111566260063,,,0.0,True,3
774,0,,,0,0.3551111566260063,,,0.0,True,3
775,0,,,0,0.3551111566260063,,,0.0,True,3
776,0,,,0,0.3551111566260063,,,0.0,True,3
777,0,,,0,0.3551111566260063,,,0.0,True,3
778,0,,,0,0.3551111566260063,,,0.0,True,3
779,0,,,0,0.3551111566260063,,,0.0,True,3
780,0,,,0,0.3551111566260063,,,0.0,True,3
781,0,,,0,0.3551111566260063,,,0.0,True,3
782,0,,,0,0.3551111566260063,,,0.0,True,3
783,0,,,0,0.3551111566260063,,,0.0,True,3
784,0,,,0,0.3551111566260063,,,0.0,True,3
785,0,,,0,0.3551111566260063,,,0.0,True,3
786,0,,,0,0.3551111566260063,,,0.0,True,3
787,0,,,0,0.3551111566260063,,,0.0,True,3
788,0,,,0,0.3551111566260063,,,0.0,True,3
789,0,,,0,0.3551111566260063,,,0.0,True,3
790,0,,,0,0.3551111566260063,,,0.0,True,3
791,0,,,0,0.3551111566260063,,,0.0,True,3
792,0,,,0,0.3551111566260063,,,0.0,True,3
793,0,,,0,0.3551111566260063,,,0.0,True,3
794,0,,,0,0.3551111566260063,,,0.0,True,3
795,0,,,0,0.3551111566260063,,,0.0,True,3
796,0,,,0,0.3551111566260063,,,0.0,True,3
797,0,,,0,0.3551111566260063,,,0.0,True,3
798,0,,,0,0.3551111566260063,,,0.0,True,3
799,0,,,0,0.3551111566260063,,,0.0,True,3
800,0,,,0,0.3551111566260063,,,0.0,True,3
801,0,,,0,0.3551111566260063,,,0.0,True,3
802,0,,,0,0.3551111566260063,,,0.0,True,3
803,0,,,0,0.3551111566260063,,,0.0,True,3
804,0,,,0,0.3551111566260063,,,0.0,True,3
805,0,,,0,0.3551111566260063,,,0.0,True,3
806,0,,,0,0.3551111566260063,,,0.0,True,3
807,0,,,0,0.3551111566260063,,,0.0,True,3
808,0,,,0,0.3551111566260063,,,0.0,True,3
809,0,,,0,0.3551111566260063,,,0.0,True,3
810,0,,,0,0.3551111566260063,,,0.0,True,3
811,0,,,0,0.3551111566260063,,,0.0,True,3
812,0,,,0,0.3551111566260063,,,0.0,True,3
813,0,,,0,0.3551111566260063,,,0.0,True,3
814,0,,,0,0.3551111566260063,,,0.0,True,3
815,0,,,0,0.3551111566260063,,,0.0,True,3
816,0,,,0,0.3551111566260063,,,0.0,True,3
817,0,,,0,0.3551111566260063,,,0.0,True,3
818,0,,,0,0.3551111566260063,,,0.0,True,3
819,0,,,0,0.3551111566260063,,,0.0,True,3
820,0,,,0,0.3551111566260063,,,0.0,True,3
821,0,,,0,0.3551111566260063,,,0.0,True,3
822,0,,,0,0.3551111566260063,,,0.0,True,3
823,0,,,0,0.3551111566260063,,,0.0,True,3
824,0,,,0,0.3551111566260063,,,0.0,True,3
825,0,,,0,0.3551111566260063,,,0.0,True,3
826,0,,,0,0.3551111566260063,,,0.0,True,3
827,0,,,0,0.3551111566260063,,,0.0,True,3
828,0,,,0,0.3551111566260063,,,0.0,True,3
829,0,,,0,0.3551111566260063,,,0.0,True,3
830,0,,,0,0.3551111566260063,,,0.0,True,3
831,0,,,0,0.3551111566260063,,,0.0,True,3
832,0,,,0,0.3551111566260063,,,0.0,True,3
833,0,,,0,0.3551111566260063,,,0.0,True,3
834,0,,,0,0.3551111566260063,,,0.0,True,3
835,0,,,0,0.3551111566260063,,,0.0,True,3
836,0,,,0,0.3551111566260063,,,0.0,True,3
837,0,,,0,0.3551111566260063,,,0.0,True,3
838,0,,,0,0.3551111566260063,,,0.0,True,3
839,0,,,0,0.3551111566260063,,,0.0,True,3
840,0,,,0,0.3551111566260063,,,0.0,True,3
841,0,,,0,0.3551111566260063,,,0.0,True,3
842,0,,,0,0.3551111566260063,,,0.0,True,3
843,0,,,0,0.3551111566260063,,,0.0,True,3
844,0,,,0,0.3551111566260063,,,0.0,True,3
845,0,,,0,0.3551111566260063,,,0.0,True,3
846,0,,,0,0.3551111566260063,,,0.0,True,3
847,0,,,0,0.3551111566260063,,,0.0,True,3
848,0,,,0,0.3551111566260063,,,0.0,True,3
849,0,,,0,0.3551111566260063,,,0.0,True,3
850,0,,,0,0.3551111566260063,,,0.0,True,3
851,0,,,0,0.3551111566260063,,,0.0,True,3
852,0,,,0,0.3551111566260063,,,0.0,True,3
853,0,,,0,0.3551111566260063,,,0.0,True,3
854,0,,,0,0.3551111566260063,,,0.0,True,3
855,0,,,0,0.3551111566260063,,,0.0,True,3
856,0,,,0,0.3551111566260063,,,0.0,True,3
857,0,,,0,0.3551111566260063,,,0.0,True,3
858,0,,,0,0.3551111566260063,,,0.0,True,3
859,0,,,0,0.3551111566260063,,,0.0,True,3
860,0,,,0,0.3551111566260063,,,0.0,True,3
861,0,,,0,0.3551111566260063,,,0.0,True,3
862,0,,,0,0.3551111566260063,,,0.0,True,3
863,0,,,0,0.3551111566260063,,,0.0,True,3
864,0,,,0,0.3551111566260063,,,0.0,True,3
865,0,,,0,0.3551111566260063,,,0.0,True,3
866,0,,,0,0.3551111566260063,,,0.0,True,3
867,0,,,0,0.3551111566260063,,,0.0,True,3
868,0,,,0,0.3551111566260063,,,0.0,True,3
869,0,,,0,0.3551111566260063,,,0.0,True,3
870,0,,,0,0.3551111566260063,,,0.0,True,3
871,0,,,0,0.3551111566260063,,,0.0,True,3
872,0,,,0,0.3551111566260063,,,0.0,True,3
873,0,,,0,0.3551111566260063,,,0.0,True,3
874,0,,,0,0.3551111566260063,,,0.0,True,3
875,0,,,0,0.3551111566260063,,,0.0,True,3
876,0,,,0,0.3551111566260063,,,0.0,True,3
877,0,,,0,0.3551111566260063,,,0.0,True,3
878,0,,,0,0.3551111566260063,,,0.0,True,3
879,0,,,0,0.3551111566260063,,,0.0,True,3
880,0,,,0,0.3551111566260063,,,0.0,True,3
881,0,,,0,0.3551111566260063,,,0.0,True,3
882,0,,,0,0.3551111566260063,,,0.0,True,3
883,0,,,0,0.3551111566260063,,,0.0,True,3
884,0,,,0,0.3551111566260063,,,0.0,True,3
885,0,,,0,0.3551111566260063,,,0.0,True,3
886,0,,,0,0.3551111566260063,,,0.0,True,3
887,0,,,0,0.3551111566260063,,,0.0,True,3
888,0,,,0,0.3551111566260063,,,0.0,True,3
889,0,,,0,0.3551111566260063,,,0.0,True,3
890,0,,,0,0.3551111566260063,,,0.0,True,3
891,0,,,0,0.3551111566260063,,,0.0,True,3
892,0,,,0,0.3551111566260063,,,0.0,True,3
893,0,,,0,0.3551111566260063,,,0.0,True,3
894,0,,,0,0.3551111566260063,,,0.0,True,3
895,0,,,0,0.3551111566260063,,,0.0,True,3
896,0,,,0,0.3551111566260063,,,0.0,True,3
897,0,,,0,0.3551111566260063,,,0.0,True,3
898,0,,,0,0.3551111566260063,,,0.0,True,3
899,0,,,0,0.3551111566260063,,,0.0,True,3
900,0,,,0,0.3551111566260063,,,0.0,True,3
901,0,,,0,0.3551111566260063,,,0.0,True,3
902,0,,,0,0.3551111566260063,,,0.0,True,3
903,0,,,0,0.3551111566260063,,,0.0,True,3
904,0,,,0,0.3551111566260063,,,0.0,True,3
905,0,,,0,0.3551111566260063,,,0.0,True,3
906,0,,,0,0.3551111566260063,,,0.0,True,3
907,0,,,0,0.3551111566260063,,,0.0,True,3
908,0,,,0,0.3551111566260063,,,0.0,True,3
909,0,,,0,0.3551111566260063,,,0.0,True,3
910,0,,,0,0.3551111566260063,,,0.0,True,3
911,0,,,0,0.3551111566260063,,,0.0,True,3
912,0,,,0,0.3551111566260063,,,0.0,True,3
913,0,,,0,0.3551111566260063,,,0.0,True,3
914,0,,,0,0.3551111566260063,,,0.0,True,3
915,0,,,0,0.3551111566260063,,,0.0,True,3
916,0,,,0,0.3551111566260063,,,0.0,True,3
917,0,,,0,0.3551111566260063,,,0.0,True,3
918,0,,,0,0.3551111566260063,,,0.0,True,3
919,0,,,0,0.3551111566260063,,,0.0,True,3
920,0,,,0,0.3551111566260063,,,0.0,True,3
921,0,,,0,0.3551111566260063,,,0.0,True,3
922,0,,,0,0.3551111566260063,,,0.0,True,3
923,0,,,0,0.3551111566260063,,,0.0,True,3
924,0,,,0,0.3551111566260063,,,0.0,True,3
925,0,,,0,0.3551111566260063,,,0.0,True,3
926,0,,,0,0.3551111566260063,,,0.0,True,3
927,0,,,0,0.3551111566260063,,,0.0,True,3
928,0,,,0,0.3551111566260063,,,0.0,True,3
929,0,,,0,0.3551111566260063,,,0.0,True,3
930,0,,,0,0.3551111566260063,,,0.0,True,3
931,0,,,0,0.3551111566260063,,,0.0,True,3
932,0,,,0,0.3551111566260063,,,0.0,True,3
933,0,,,0,0.3551111566260063,,,0.0,True,3
934,0,,,0,0.3551111566260063,,,0.0,True,3
935,0,,,0,0.3551111566260063,,,0.0,True,3
936,0,,,0,0.3551111566260063,,,0.0,True,3
937,0,,,0,0.3551111566260063,,,0.0,True,3
938,0,,,0,0.3551111566260063,,,0.0,True,3
939,0,,,0,0.3551111566260063,,,0.0,True,3
940,0,,,0,0.3551111566260063,,,0.0,True,3
941,0,,,0,0.3551111566260063,,,0.0,True,3
942,0,,,0,0.3551111566260063,,,0.0,True,3
943,0,,,0,0.3551111566260063,,,0.0,True,3
944,0,,,0,0.3551111566260063,,,0.0,True,3
945,0,,,0,0.3551111566260063,,,0.0,True,3
946,0,,,0,0.3551111566260063,,,0.0,True,3
947,0,,,0,0.3551111566260063,,,0.0,True,3
948,0,,,0,0.3551111566260063,,,0.0,True,3
949,0,,,0,0.3551111566260063,,,0.0,True,3
950,0,,,0,0.3551111566260063,,,0.0,True,3
951,0,,,0,0.3551111566260063,,,0.0,True,3
952,0,,,0,0.3551111566260063,,,0.0,True,3
953,0,,,0,0.3551111566260063,,,0.0,True,3
954,0,,,0,0.3551111566260063,,,0.0,True,3
955,0,,,0,0.3551111566260063,,,0.0,True,3
956,0,,,0,0.3551111566260063,,,0.0,True,3
957,0,,,0,0.3551111566260063,,,0.0,True,3
958,0,,,0,0.3551111566260063,,,0.0,True,3
959,0,,,0,0.3551111566260063,,,0.0,True,3
960,0,,,0,0.3551111566260063,,,0.0,True,3
961,0,,,0,0.3551111566260063,,,0.0,True,3
962,0,,,0,0.3551111566260063,,,0.0,True,3
963,0,,,0,0.3551111566260063,,,0.0,True,3
964,0,,,0,0.3551111566260063,,,0.0,True,3
965,0,,,0,0.3551111566260063,,,0.0,True,3
966,0,,,0,0.3551111566260063,,,0.0,True,3
967,0,,,0,0.3551111566260063,,,0.0,True,3
968,0,,,0,0.3551111566260063,,,0.0,True,3
969,0,,,0,0.3551111566260063,,,0.0,True,3
970,0,,,0,0.3551111566260063,,,0.0,True,3
971,0,,,0,0.3551111566260063,,,0.0,True,3
972,0,,,0,0.3551111566260063,,,0.0,True,3
973,0,,,0,0.3551111566260063,,,0.0,True,3
974,0,,,0,0.3551111566260063,,,0.0,True,3
975,0,,,0,0.3551111566260063,,,0.0,True,3
976,0,,,0,0.3551111566260063,,,0.0,True,3
977,0,,,0,0.3551111566260063,,,0.0,True,3
978,0,,,0,0.3551111566260063,,,0.0,True,3
979,0,,,0,0.3551111566260063,,,0.0,True,3
980,0,,,0,0.3551111566260063,,,0.0,True,3
981,0,,,0,0.3551111566260063,,,0.0,True,3
982,0,,,0,0.3551111566260063,,,0.0,True,3
983,0,,,0,0.3551111566260063,,,0.0,True,3
984,0,,,0,0.3551111566260063,,,0.0,True,3
985,0,,,0,0.3551111566260063,,,0.0,True,3
986,0,,,0,0.3551111566260063,,,0.0,True,3
987,0,,,0,0.3551111566260063,,,0.0,True,3
988,0,,,0,0.3551111566260063,,,0.0,True,3
989,0,,,0,0.3551111566260063,,,0.0,True,3
990,0,,,0,0.3551111566260063,,,0.0,True,3
991,0,,,0,0.3551111566260063,,,0.0,True,3
992,0,,,0,0.3551111566260063,,,0.0,True,3
993,0,,,0,0.3551111566260063,,,0.0,True,3
994,0,,,0,0.3551111566260063,,,0.0,True,3
995,0,,,0,0.3551111566260063,,,0.0,True,3
996,0,,,0,0.3551111566260063,,,0.0,True,3
997,0,,,0,0.3551111566260063,,,0.0,True,3
998,0,,,0,0.3551111566260063,,,0.0,True,3
999,0,,,0,0.3551111566260063,,,0.0,True,3
1000,0,,,0,0.3551111566260063,,,0.0,True,3
